output.vcd
$date
	Sat Apr 23 20:49:05 2022
$end
$version
	Icarus Verilog
$end
$timescale
	1ps
$end
$scope module tb_multi_cycle $end
$var wire 16 ! Instruction [15:0] $end
$var wire 5 " State [4:0] $end
$var wire 1 # OpCode $end
$var reg 1 $ clk $end
$var reg 1 % rst $end
$var integer 32 & count [31:0] $end
$scope module uut $end
$var wire 1 $ clk $end
$var wire 1 % rst $end
$var wire 1 ' SESF $end
$var wire 1 ( RegWr $end
$var wire 1 ) RegDst $end
$var wire 2 * R1Src [1:0] $end
$var wire 1 + PCWriteCond $end
$var wire 1 , PCWrite $end
$var wire 2 - PCSrc [1:0] $end
$var wire 4 . OpCode [3:0] $end
$var wire 1 / MemWr $end
$var wire 1 0 MemToReg $end
$var wire 1 1 MemRd $end
$var wire 1 2 JE $end
$var wire 1 3 IRd $end
$var wire 1 4 IRWr $end
$var wire 4 5 Func [3:0] $end
$var wire 1 6 BNEq $end
$var wire 2 7 ALUSrcB [1:0] $end
$var wire 1 8 ALUSrcA $end
$var wire 3 9 ALUCtrl [2:0] $end
$scope module ControlUnit $end
$var wire 1 $ clk $end
$var wire 1 % rst $end
$var wire 4 : OpCode [3:0] $end
$var wire 4 ; Func [3:0] $end
$var reg 3 < ALU [2:0] $end
$var reg 1 8 ALUSrcA $end
$var reg 2 = ALUSrcB [1:0] $end
$var reg 1 6 BNEq $end
$var reg 1 4 IRWr $end
$var reg 1 3 IRd $end
$var reg 1 2 JE $end
$var reg 1 1 MemRd $end
$var reg 1 0 MemToReg $end
$var reg 1 / MemWr $end
$var reg 5 > NextState [4:0] $end
$var reg 2 ? PCSrc [1:0] $end
$var reg 1 , PCWrite $end
$var reg 1 + PCWriteCond $end
$var reg 2 @ R1Src [1:0] $end
$var reg 1 ) RegDst $end
$var reg 1 ( RegWr $end
$var reg 1 ' SESF $end
$var reg 5 A State [4:0] $end
$upscope $end
$scope module Datapath $end
$var wire 3 B ALUCtrl [2:0] $end
$var wire 1 8 ALUSrcA $end
$var wire 2 C ALUSrcB [1:0] $end
$var wire 1 6 BNEq $end
$var wire 1 D Branch $end
$var wire 1 E ChangePC $end
$var wire 4 F Func [3:0] $end
$var wire 1 4 IRWr $end
$var wire 1 3 IRd $end
$var wire 1 2 JE $end
$var wire 1 1 MemRd $end
$var wire 1 0 MemToReg $end
$var wire 1 / MemWr $end
$var wire 4 G OpCode [3:0] $end
$var wire 2 H PCSrc [1:0] $end
$var wire 1 , PCWrite $end
$var wire 1 + PCWriteCond $end
$var wire 1 I PCWrite_in $end
$var wire 2 J R1Src [1:0] $end
$var wire 1 ) RegDst $end
$var wire 1 ( RegWr $end
$var wire 1 ' SESF $end
$var wire 1 $ clk $end
$var wire 1 % rst $end
$var wire 1 K Zero $end
$var wire 16 L ZP_8to16_out [15:0] $end
$var wire 16 M SEx_8to16_out [15:0] $end
$var wire 16 N SEx_12to16_out [15:0] $end
$var wire 16 O SESF_m_out [15:0] $end
$var wire 4 P RegDst_m_out [3:0] $end
$var wire 16 Q ReadData3 [15:0] $end
$var wire 16 R ReadData2 [15:0] $end
$var wire 16 S ReadData1 [15:0] $end
$var wire 2 T RP_l [1:0] $end
$var wire 2 U RD_l [1:0] $end
$var wire 4 V RC [3:0] $end
$var wire 4 W RB [3:0] $end
$var wire 4 X RA [3:0] $end
$var wire 4 Y R1Src_m_out [3:0] $end
$var wire 16 Z PC_out [15:0] $end
$var wire 16 [ PCSrc_m_out [15:0] $end
$var wire 4 \ Opcode [3:0] $end
$var wire 16 ] MemToReg_m_out [15:0] $end
$var wire 16 ^ MDR_out [15:0] $end
$var wire 16 _ LeftShift_out [15:0] $end
$var wire 16 ` JE_m_out [15:0] $end
$var wire 16 a InstrMem_out [15:0] $end
$var wire 16 b IR_out [15:0] $end
$var wire 16 c DataMem_out [15:0] $end
$var wire 16 d C_out [15:0] $end
$var wire 16 e B_out [15:0] $end
$var wire 16 f A_out [15:0] $end
$var wire 16 g ALU_out [15:0] $end
$var wire 16 h ALUSrcB_m_out [15:0] $end
$var wire 16 i ALUSrcA_m_out [15:0] $end
$var wire 16 j ALUOut_out [15:0] $end
$scope module A $end
$var wire 1 k Write $end
$var wire 1 $ clk $end
$var wire 1 % rst $end
$var wire 16 l Input [15:0] $end
$var reg 16 m Output [15:0] $end
$upscope $end
$scope module ALU $end
$var wire 16 n ALU_Out [15:0] $end
$var wire 3 o ALU_Sel [2:0] $end
$var wire 1 K Zero $end
$var wire 16 p B [15:0] $end
$var wire 16 q A [15:0] $end
$var reg 16 r ALU_Result [15:0] $end
$var reg 1 K ZF $end
$upscope $end
$scope module ALUOut $end
$var wire 16 s Input [15:0] $end
$var wire 1 t Write $end
$var wire 1 $ clk $end
$var wire 1 % rst $end
$var reg 16 u Output [15:0] $end
$upscope $end
$scope module ALUSrcA_m $end
$var wire 16 v Input1 [15:0] $end
$var wire 1 8 Select $end
$var wire 16 w Input0 [15:0] $end
$var reg 16 x Output [15:0] $end
$upscope $end
$scope module ALUSrcB_m $end
$var wire 16 y Input1 [15:0] $end
$var wire 2 z Select [1:0] $end
$var wire 16 { Input3 [15:0] $end
$var wire 16 | Input2 [15:0] $end
$var wire 16 } Input0 [15:0] $end
$var reg 16 ~ Output [15:0] $end
$upscope $end
$scope module B $end
$var wire 1 !" Write $end
$var wire 1 $ clk $end
$var wire 1 % rst $end
$var wire 16 "" Input [15:0] $end
$var reg 16 #" Output [15:0] $end
$upscope $end
$scope module C $end
$var wire 1 $" Write $end
$var wire 1 $ clk $end
$var wire 1 % rst $end
$var wire 16 %" Input [15:0] $end
$var reg 16 &" Output [15:0] $end
$upscope $end
$scope module DataMem $end
$var wire 16 '" Address [15:0] $end
$var wire 1 1 MemRead $end
$var wire 1 / MemWrite $end
$var wire 16 (" WriteData [15:0] $end
$var wire 1 $ clk $end
$var reg 15 )" ActualAddress [14:0] $end
$var reg 16 *" MemData [15:0] $end
$upscope $end
$scope module IR $end
$var wire 1 4 Write $end
$var wire 1 $ clk $end
$var wire 1 % rst $end
$var wire 16 +" Input [15:0] $end
$var reg 16 ," Output [15:0] $end
$upscope $end
$scope module InstrMem $end
$var wire 1 3 IRd $end
$var wire 1 $ clk $end
$var wire 16 -" pc [15:0] $end
$var wire 15 ." address [14:0] $end
$var reg 16 /" instruction [15:0] $end
$upscope $end
$scope module JE_m $end
$var wire 1 2 Select $end
$var wire 16 0" Input1 [15:0] $end
$var wire 16 1" Input0 [15:0] $end
$var reg 16 2" Output [15:0] $end
$upscope $end
$scope module MDR $end
$var wire 16 3" Input [15:0] $end
$var wire 1 4" Write $end
$var wire 1 $ clk $end
$var wire 1 % rst $end
$var reg 16 5" Output [15:0] $end
$upscope $end
$scope module MemToReg_m $end
$var wire 16 6" Input0 [15:0] $end
$var wire 16 7" Input1 [15:0] $end
$var wire 1 0 Select $end
$var reg 16 8" Output [15:0] $end
$upscope $end
$scope module PC $end
$var wire 1 I Write $end
$var wire 1 $ clk $end
$var wire 1 % rst $end
$var wire 16 9" Input [15:0] $end
$var reg 16 :" Output [15:0] $end
$upscope $end
$scope module PCSrc_m $end
$var wire 16 ;" Input0 [15:0] $end
$var wire 16 <" Input1 [15:0] $end
$var wire 16 =" Input2 [15:0] $end
$var wire 16 >" Input3 [15:0] $end
$var wire 2 ?" Select [1:0] $end
$var reg 16 @" Output [15:0] $end
$upscope $end
$scope module R1Src_m $end
$var wire 4 A" Input0 [3:0] $end
$var wire 4 B" Input1 [3:0] $end
$var wire 4 C" Input2 [3:0] $end
$var wire 4 D" Input3 [3:0] $end
$var wire 2 E" Select [1:0] $end
$var reg 4 F" Output [3:0] $end
$upscope $end
$scope module RFile $end
$var wire 4 G" ReadReg1 [3:0] $end
$var wire 4 H" ReadReg2 [3:0] $end
$var wire 1 ( RegWr $end
$var wire 16 I" WriteData [15:0] $end
$var wire 1 $ clk $end
$var wire 4 J" WriteRegister [3:0] $end
$var wire 4 K" ReadReg3 [3:0] $end
$var reg 16 L" ReadData1 [15:0] $end
$var reg 16 M" ReadData2 [15:0] $end
$var reg 16 N" ReadData3 [15:0] $end
$var integer 32 O" i [31:0] $end
$upscope $end
$scope module RegDst_m $end
$var wire 4 P" Input0 [3:0] $end
$var wire 4 Q" Input1 [3:0] $end
$var wire 1 ) Select $end
$var reg 4 R" Output [3:0] $end
$upscope $end
$scope module SESF_m $end
$var wire 1 ' Select $end
$var wire 16 S" Input1 [15:0] $end
$var wire 16 T" Input0 [15:0] $end
$var reg 16 U" Output [15:0] $end
$upscope $end
$scope module ls1 $end
$var wire 16 V" Input [15:0] $end
$var reg 16 W" Output [15:0] $end
$upscope $end
$scope module sex1 $end
$var wire 8 X" unext [7:0] $end
$var reg 16 Y" ext [15:0] $end
$upscope $end
$scope module sex2 $end
$var wire 12 Z" unext [11:0] $end
$var reg 16 [" ext [15:0] $end
$upscope $end
$scope module zp1 $end
$var wire 8 \" unext [7:0] $end
$var reg 16 ]" ext [15:0] $end
$upscope $end
$upscope $end
$upscope $end
$upscope $end
$enddefinitions $end
#0
$dumpvars
b0 ]"
b0 \"
b0 ["
b0 Z"
b0 Y"
b0 X"
b0 W"
b0 V"
b0 U"
b0 T"
b0 S"
b0 R"
b1100 Q"
b0 P"
b10000 O"
b11 N"
b11 M"
b11 L"
b0 K"
b0 J"
b0 I"
b0 H"
b1000 G"
b1000 F"
b0 E"
bx D"
b0 C"
b0 B"
b1000 A"
b10 @"
b10 ?"
bx >"
b10 ="
b0 <"
b0 ;"
b0 :"
b10 9"
b0 8"
b0 7"
b0 6"
b0 5"
14"
bx 3"
b0 2"
b0 1"
b0 0"
b1000000100000000 /"
b0 ."
b0 -"
b0 ,"
b1000000100000000 +"
bx *"
b0 )"
b0 ("
b0 '"
b0 &"
b11 %"
1$"
b0 #"
b11 ""
1!"
b10 ~
b0 }
b0 |
b0 {
b1 z
b10 y
b0 x
b0 w
b0 v
b0 u
1t
b10 s
b10 r
b0 q
b10 p
b0 o
b10 n
b0 m
b11 l
1k
b0 j
b0 i
b10 h
b10 g
b0 f
b0 e
b0 d
bx c
b0 b
b1000000100000000 a
b0 `
b0 _
b0 ^
b0 ]
b0 \
b10 [
b0 Z
b1000 Y
b0 X
b0 W
b0 V
b0 U
b0 T
b11 S
b11 R
b11 Q
b0 P
b0 O
b0 N
b0 M
b0 L
0K
b0 J
1I
b10 H
b0 G
b0 F
0E
0D
b1 C
b0 B
b0 A
b0 @
b10 ?
b10 >
b1 =
b0 <
b0 ;
b0 :
b0 9
08
b1 7
06
b0 5
14
13
02
01
00
0/
b0 .
b10 -
1,
0+
b0 *
0)
0(
0'
b0 &
1%
0$
0#
b0 "
b0 !
$end
#2000
1$
#3000
0%
#4000
b100 [
b100 9"
b100 @"
b100 g
b100 n
b100 s
b100 ="
b100 r
b1001 Y
b1001 F"
b1001 G"
b1 >
b100000000 N
b100000000 0"
b100000000 ["
b1 P
b1 J"
b1 K"
b1 R"
b1010000100001010 a
b1010000100001010 +"
b1010000100001010 /"
b1 )"
b10 ]
b10 8"
b10 I"
b10 i
b10 q
b10 x
b1001 A"
b1 T
b1000 .
b1000 :
b1000 G
b1000 \
b100000000 Z"
b1 X
b1 C"
b1 P"
b1 ."
b10 j
b10 u
b10 '"
b10 6"
b10 ;"
b11 d
b11 &"
b11 ("
b11 <"
b11 e
b11 }
b11 #"
b11 f
b11 m
b11 v
bx ^
bx 5"
bx 7"
b1000000100000000 !
b1000000100000000 b
b1000000100000000 ,"
b10 Z
b10 w
b10 -"
b10 :"
b1 &
0$
#6000
b100000000 `
b100000000 |
b100000000 2"
b0 Y
b0 F"
b0 G"
0I
04
12
b1 *
b1 @
b1 J
b1 E"
0,
03
b110 >
b1 "
b1 A
1$
#8000
b10 )"
b100 ]
b100 8"
b100 I"
b100 j
b100 u
b100 '"
b100 6"
b100 ;"
0$
#10000
b110 [
b110 9"
b110 @"
b110 g
b110 n
b110 s
b110 ="
b110 r
b11 h
b11 p
b11 ~
b11 i
b11 q
b11 x
b0 7
b0 =
b0 C
b0 z
18
b10101 >
b110 "
b110 A
1$
#12000
b11 )"
b110 ]
b110 8"
b110 I"
b110 j
b110 u
b110 '"
b110 6"
b110 ;"
0$
#14000
1(
b0 >
b10101 "
b10101 A
1$
#16000
b110 Q
b110 %"
b110 N"
0$
#18000
b100 [
b100 9"
b100 @"
b100 g
b100 n
b100 s
b100 ="
b100 r
b0 `
b0 |
b0 2"
b1001 Y
b1001 F"
b1001 G"
b10 h
b10 p
b10 ~
b10 i
b10 q
b10 x
1I
02
0(
14
b0 *
b0 @
b0 J
b0 E"
1,
b1 7
b1 =
b1 C
b1 z
08
13
b1 >
b0 "
b0 A
1$
#20000
b1010 `
b1010 |
b1010 2"
b110 [
b110 9"
b110 @"
b1010 _
b1010 {
b1010 W"
b1010 O
b1010 1"
b1010 U"
b110 g
b110 n
b110 s
b110 ="
b110 r
b1010 M
b1010 S"
b1010 V"
b1010 Y"
b100001010 N
b100001010 0"
b100001010 ["
b1010 L
b1010 T"
b1010 ]"
b10 >
b1000001000000000 a
b1000001000000000 +"
b1000001000000000 /"
b10 )"
b100 ]
b100 8"
b100 I"
b100 i
b100 q
b100 x
b1010 .
b1010 :
b1010 G
b1010 \
b1010 X"
b100001010 Z"
b1010 \"
b1010 5
b1010 ;
b1010 F
b1010 V
b1010 H"
b10 ."
b100 j
b100 u
b100 '"
b100 6"
b100 ;"
b110 d
b110 &"
b110 ("
b110 <"
b1010000100001010 !
b1010000100001010 b
b1010000100001010 ,"
b100 Z
b100 w
b100 -"
b100 :"
b10 &
0$
#22000
b110 S
b110 l
b110 L"
b1 Y
b1 F"
b1 G"
0I
04
b10 *
b10 @
b10 J
b10 E"
0,
03
b1010 >
b10 "
b10 A
1$
#24000
b11 )"
b110 ]
b110 8"
b110 I"
b110 f
b110 m
b110 v
b110 j
b110 u
b110 '"
b110 6"
b110 ;"
0$
#26000
b10000 [
b10000 9"
b10000 @"
b10000 g
b10000 n
b10000 s
b10000 ="
b10000 r
b1010 h
b1010 p
b1010 ~
b110 i
b110 q
b110 x
b10 7
b10 =
b10 C
b10 z
18
b10101 >
b1010 "
b1010 A
1$
#28000
b1000 )"
b10000 ]
b10000 8"
b10000 I"
b10000 j
b10000 u
b10000 '"
b10000 6"
b10000 ;"
0$
#30000
1(
b0 >
b10101 "
b10101 A
1$
#32000
b10000 Q
b10000 %"
b10000 N"
b10000 S
b10000 l
b10000 L"
0$
#34000
b110 [
b110 9"
b110 @"
b11 S
b11 l
b11 L"
b110 g
b110 n
b110 s
b110 ="
b110 r
b1001 Y
b1001 F"
b1001 G"
b10 h
b10 p
b10 ~
b100 i
b100 q
b100 x
1I
0(
14
b0 *
b0 @
b0 J
b0 E"
1,
b1 7
b1 =
b1 C
b1 z
08
13
b10 >
b0 "
b0 A
1$
#36000
b0 `
b0 |
b0 2"
b1000 [
b1000 9"
b1000 @"
b11 Q
b11 %"
b11 N"
b0 _
b0 {
b0 W"
b0 O
b0 1"
b0 U"
b1000 g
b1000 n
b1000 s
b1000 ="
b1000 r
b1010 Y
b1010 F"
b1010 G"
b10 P
b10 J"
b10 K"
b10 R"
b0 M
b0 S"
b0 V"
b0 Y"
b1000000000 N
b1000000000 0"
b1000000000 ["
b0 L
b0 T"
b0 ]"
b1 >
b1010001000000100 a
b1010001000000100 +"
b1010001000000100 /"
b11 )"
b110 ]
b110 8"
b110 I"
b110 i
b110 q
b110 x
b1010 A"
b10 T
b1000 .
b1000 :
b1000 G
b1000 \
b10 X
b10 C"
b10 P"
b0 X"
b1000000000 Z"
b0 \"
b0 5
b0 ;
b0 F
b0 V
b0 H"
b11 ."
b110 j
b110 u
b110 '"
b110 6"
b110 ;"
b10000 d
b10000 &"
b10000 ("
b10000 <"
b11 f
b11 m
b11 v
b1000001000000000 !
b1000001000000000 b
b1000001000000000 ,"
b110 Z
b110 w
b110 -"
b110 :"
b11 &
0$
#38000
b1000000000 `
b1000000000 |
b1000000000 2"
b0 Y
b0 F"
b0 G"
0I
04
12
b1 *
b1 @
b1 J
b1 E"
0,
03
b110 >
b1 "
b1 A
1$
#40000
b100 )"
b1000 ]
b1000 8"
b1000 I"
b11 d
b11 &"
b11 ("
b11 <"
b1000 j
b1000 u
b1000 '"
b1000 6"
b1000 ;"
0$
#42000
b110 [
b110 9"
b110 @"
b110 g
b110 n
b110 s
b110 ="
b110 r
b11 h
b11 p
b11 ~
b11 i
b11 q
b11 x
b0 7
b0 =
b0 C
b0 z
18
b10101 >
b110 "
b110 A
1$
#44000
b11 )"
b110 ]
b110 8"
b110 I"
b110 j
b110 u
b110 '"
b110 6"
b110 ;"
0$
#46000
1(
b0 >
b10101 "
b10101 A
1$
#48000
b110 Q
b110 %"
b110 N"
0$
#50000
b1000 [
b1000 9"
b1000 @"
b1000 g
b1000 n
b1000 s
b1000 ="
b1000 r
b0 `
b0 |
b0 2"
b1010 Y
b1010 F"
b1010 G"
b10 h
b10 p
b10 ~
b110 i
b110 q
b110 x
1I
02
0(
14
b0 *
b0 @
b0 J
b0 E"
1,
b1 7
b1 =
b1 C
b1 z
08
13
b1 >
b0 "
b0 A
1$
#52000
b100 `
b100 |
b100 2"
b1010 [
b1010 9"
b1010 @"
b100 _
b100 {
b100 W"
b100 O
b100 1"
b100 U"
b1010 g
b1010 n
b1010 s
b1010 ="
b1010 r
b100 M
b100 S"
b100 V"
b100 Y"
b1000000100 N
b1000000100 0"
b1000000100 ["
b100 L
b100 T"
b100 ]"
b10 >
b1100001100010010 a
b1100001100010010 +"
b1100001100010010 /"
b100 )"
b1000 ]
b1000 8"
b1000 I"
b1000 i
b1000 q
b1000 x
b1010 .
b1010 :
b1010 G
b1010 \
b100 X"
b1000000100 Z"
b100 \"
b100 5
b100 ;
b100 F
b100 V
b100 H"
b100 ."
b1000 j
b1000 u
b1000 '"
b1000 6"
b1000 ;"
b110 d
b110 &"
b110 ("
b110 <"
b1010001000000100 !
b1010001000000100 b
b1010001000000100 ,"
b1000 Z
b1000 w
b1000 -"
b1000 :"
b100 &
0$
#54000
b110 S
b110 l
b110 L"
b10 Y
b10 F"
b10 G"
0I
04
b10 *
b10 @
b10 J
b10 E"
0,
03
b1010 >
b10 "
b10 A
1$
#56000
b101 )"
b1010 ]
b1010 8"
b1010 I"
b110 f
b110 m
b110 v
b1010 j
b1010 u
b1010 '"
b1010 6"
b1010 ;"
0$
#58000
b100 h
b100 p
b100 ~
b110 i
b110 q
b110 x
b10 7
b10 =
b10 C
b10 z
18
b10101 >
b1010 "
b1010 A
1$
#60000
0$
#62000
1(
b0 >
b10101 "
b10101 A
1$
#64000
b1010 Q
b1010 %"
b1010 N"
b1010 S
b1010 l
b1010 L"
0$
#66000
b11 S
b11 l
b11 L"
b1010 Y
b1010 F"
b1010 G"
b10 h
b10 p
b10 ~
b1000 i
b1000 q
b1000 x
1I
0(
14
b0 *
b0 @
b0 J
b0 E"
1,
b1 7
b1 =
b1 C
b1 z
08
13
b10 >
b0 "
b0 A
1$
#68000
b10010 `
b10010 |
b10010 2"
b1100 [
b1100 9"
b1100 @"
b11 Q
b11 %"
b11 N"
b10010 _
b10010 {
b10010 W"
b10010 O
b10010 1"
b10010 U"
b1100 g
b1100 n
b1100 s
b1100 ="
b1100 r
b1011 Y
b1011 F"
b1011 G"
b11 P
b11 J"
b11 K"
b11 R"
b10010 M
b10010 S"
b10010 V"
b10010 Y"
b1100010010 N
b1100010010 0"
b1100010010 ["
b10010 L
b10010 T"
b10010 ]"
b1010 R
b1010 ""
b1010 M"
b1 >
b1110001100000100 a
b1110001100000100 +"
b1110001100000100 /"
b1010 i
b1010 q
b1010 x
b1011 A"
b11 T
b1100 .
b1100 :
b1100 G
b1100 \
b11 X
b11 C"
b11 P"
b1 W
b1 B"
b10010 X"
b1100010010 Z"
b10010 \"
b10 5
b10 ;
b10 F
b10 V
b10 H"
b101 ."
b1010 d
b1010 &"
b1010 ("
b1010 <"
b11 f
b11 m
b11 v
b1100001100010010 !
b1100001100010010 b
b1100001100010010 ,"
b1010 Z
b1010 w
b1010 -"
b1010 :"
b101 &
0$
#70000
b10000 S
b10000 l
b10000 L"
b1100010010 `
b1100010010 |
b1100010010 2"
b1 Y
b1 F"
b1 G"
0I
04
12
b1 *
b1 @
b1 J
b1 E"
0,
03
b111 >
b1 "
b1 A
1$
#72000
b110 )"
b1100 ]
b1100 8"
b1100 I"
b10000 f
b10000 m
b10000 v
b1010 e
b1010 }
b1010 #"
b11 d
b11 &"
b11 ("
b11 <"
b1100 j
b1100 u
b1100 '"
b1100 6"
b1100 ;"
0$
#74000
b110 [
b110 9"
b110 @"
b1010 h
b1010 p
b1010 ~
b10000 i
b10000 q
b10000 x
b110 g
b110 n
b110 s
b110 ="
b110 r
b1 9
b1 <
b1 B
b1 o
b0 7
b0 =
b0 C
b0 z
18
b10101 >
b111 "
b111 A
1$
#76000
b11 )"
b110 ]
b110 8"
b110 I"
b110 j
b110 u
b110 '"
b110 6"
b110 ;"
0$
#78000
1(
b0 >
b10101 "
b10101 A
1$
#80000
b110 Q
b110 %"
b110 N"
0$
#82000
b11 S
b11 l
b11 L"
b1100 [
b1100 9"
b1100 @"
b10010 `
b10010 |
b10010 2"
b1011 Y
b1011 F"
b1011 G"
b10 h
b10 p
b10 ~
b1010 i
b1010 q
b1010 x
b1100 g
b1100 n
b1100 s
b1100 ="
b1100 r
1I
02
0(
b0 9
b0 <
b0 B
b0 o
14
b0 *
b0 @
b0 J
b0 E"
1,
b1 7
b1 =
b1 C
b1 z
08
13
b1 >
b0 "
b0 A
1$
#84000
b100 `
b100 |
b100 2"
b1110 [
b1110 9"
b1110 @"
b100 _
b100 {
b100 W"
b100 O
b100 1"
b100 U"
b1110 g
b1110 n
b1110 s
b1110 ="
b1110 r
b100 M
b100 S"
b100 V"
b100 Y"
b1100000100 N
b1100000100 0"
b1100000100 ["
b100 L
b100 T"
b100 ]"
b11 R
b11 ""
b11 M"
b10 >
b1101110001 a
b1101110001 +"
b1101110001 /"
b110 )"
b1100 ]
b1100 8"
b1100 I"
b1100 i
b1100 q
b1100 x
b1110 .
b1110 :
b1110 G
b1110 \
b0 W
b0 B"
b100 X"
b1100000100 Z"
b100 \"
b100 5
b100 ;
b100 F
b100 V
b100 H"
b110 ."
b1100 j
b1100 u
b1100 '"
b1100 6"
b1100 ;"
b110 d
b110 &"
b110 ("
b110 <"
b11 f
b11 m
b11 v
b1110001100000100 !
b1110001100000100 b
b1110001100000100 ,"
b1100 Z
b1100 w
b1100 -"
b1100 :"
b110 &
0$
#86000
b110 S
b110 l
b110 L"
b11 Y
b11 F"
b11 G"
0I
04
b10 *
b10 @
b10 J
b10 E"
0,
03
b1100 >
b10 "
b10 A
1$
#88000
b111 )"
b1110 ]
b1110 8"
b1110 I"
b110 f
b110 m
b110 v
b11 e
b11 }
b11 #"
b1110 j
b1110 u
b1110 '"
b1110 6"
b1110 ;"
0$
#90000
b10 [
b10 9"
b10 @"
b100 h
b100 p
b100 ~
b110 i
b110 q
b110 x
b10 g
b10 n
b10 s
b10 ="
b10 r
b1 9
b1 <
b1 B
b1 o
b10 7
b10 =
b10 C
b10 z
18
b10101 >
b1100 "
b1100 A
1$
#92000
b1 )"
b10 ]
b10 8"
b10 I"
b10 j
b10 u
b10 '"
b10 6"
b10 ;"
0$
#94000
1(
b0 >
b10101 "
b10101 A
1$
#96000
b10 Q
b10 %"
b10 N"
b10 S
b10 l
b10 L"
0$
#98000
b11 S
b11 l
b11 L"
b1110 [
b1110 9"
b1110 @"
b1011 Y
b1011 F"
b1011 G"
b10 h
b10 p
b10 ~
b1100 i
b1100 q
b1100 x
b1110 g
b1110 n
b1110 s
b1110 ="
b1110 r
1I
0(
b0 9
b0 <
b0 B
b0 o
14
b0 *
b0 @
b0 J
b0 E"
1,
b1 7
b1 =
b1 C
b1 z
08
13
b10 >
b0 "
b0 A
1$
#100000
b1110001 `
b1110001 |
b1110001 2"
b10000 [
b10000 9"
b10000 @"
b1110000 _
b1110000 {
b1110000 W"
b1110001 O
b1110001 1"
b1110001 U"
b10000 g
b10000 n
b10000 s
b10000 ="
b10000 r
b1110001 M
b1110001 S"
b1110001 V"
b1110001 Y"
b1101110001 N
b1101110001 0"
b1101110001 ["
b1110001 L
b1110001 T"
b1110001 ]"
b10000 R
b10000 ""
b10000 M"
b100100011 a
b100100011 +"
b100100011 /"
b111 )"
b1110 ]
b1110 8"
b1110 I"
b1110 i
b1110 q
b1110 x
b0 .
b0 :
b0 G
b0 \
b111 W
b111 B"
b1110001 X"
b1101110001 Z"
b1110001 \"
b1 5
b1 ;
b1 F
b1 V
b1 H"
b111 ."
b1110 j
b1110 u
b1110 '"
b1110 6"
b1110 ;"
b10 d
b10 &"
b10 ("
b10 <"
b11 f
b11 m
b11 v
b1101110001 !
b1101110001 b
b1101110001 ,"
b1110 Z
b1110 w
b1110 -"
b1110 :"
b111 &
0$
#102000
b10 S
b10 l
b10 L"
b11 Y
b11 F"
b11 G"
0I
04
b10 *
b10 @
b10 J
b10 E"
0,
03
b10000 >
b10 "
b10 A
1$
#104000
b1000 )"
b10000 ]
b10000 8"
b10000 I"
b10 f
b10 m
b10 v
b10000 e
b10000 }
b10000 #"
b10000 j
b10000 u
b10000 '"
b10000 6"
b10000 ;"
0$
#106000
1D
1K
b0 [
b0 9"
b0 @"
b1110001 h
b1110001 p
b1110001 ~
b10 i
b10 q
b10 x
b0 g
b0 n
b0 s
b0 ="
b0 r
b10 9
b10 <
b10 B
b10 o
b10 7
b10 =
b10 C
b10 z
18
b10101 >
b10000 "
b10000 A
1$
#108000
b0 )"
b0 ]
b0 8"
b0 I"
b0 j
b0 u
b0 '"
b0 6"
b0 ;"
0$
#110000
1(
b0 >
b10101 "
b10101 A
1$
#112000
b0 Q
b0 %"
b0 N"
b0 S
b0 l
b0 L"
0$
#114000
b11 S
b11 l
b11 L"
b10000 [
b10000 9"
b10000 @"
b1011 Y
b1011 F"
b1011 G"
b10 h
b10 p
b10 ~
b1110 i
b1110 q
b1110 x
0D
0K
b10000 g
b10000 n
b10000 s
b10000 ="
b10000 r
1I
0(
b0 9
b0 <
b0 B
b0 o
14
b0 *
b0 @
b0 J
b0 E"
1,
b1 7
b1 =
b1 C
b1 z
08
13
b10 >
b0 "
b0 A
1$
#116000
b100011 `
b100011 |
b100011 2"
b10010 [
b10010 9"
b10010 @"
b10000 Q
b10000 %"
b10000 N"
b100010 _
b100010 {
b100010 W"
b100011 O
b100011 1"
b100011 U"
b10010 g
b10010 n
b10010 s
b10010 ="
b10010 r
b1001 Y
b1001 F"
b1001 G"
b1 P
b1 J"
b1 K"
b1 R"
b100011 M
b100011 S"
b100011 V"
b100011 Y"
b100100011 N
b100100011 0"
b100100011 ["
b100011 L
b100011 T"
b100011 ]"
b0 R
b0 ""
b0 M"
b1011010000110010 a
b1011010000110010 +"
b1011010000110010 /"
b1000 )"
b10000 ]
b10000 8"
b10000 I"
b10000 i
b10000 q
b10000 x
b1001 A"
b1 T
b1 X
b1 C"
b1 P"
b10 W
b10 B"
b100011 X"
b100100011 Z"
b100011 \"
b11 5
b11 ;
b11 F
b11 V
b11 H"
b1000 ."
b10000 j
b10000 u
b10000 '"
b10000 6"
b10000 ;"
b0 d
b0 &"
b0 ("
b0 <"
b11 f
b11 m
b11 v
b100100011 !
b100100011 b
b100100011 ,"
b10000 Z
b10000 w
b10000 -"
b10000 :"
b1000 &
0$
#118000
b10000 S
b10000 l
b10000 L"
b1 Y
b1 F"
b1 G"
0I
04
b10 *
b10 @
b10 J
b10 E"
0,
03
b10010 >
b10 "
b10 A
1$
#120000
b1001 )"
b10010 ]
b10010 8"
b10010 I"
b10000 f
b10000 m
b10000 v
b0 e
b0 }
b0 #"
b10000 d
b10000 &"
b10000 ("
b10000 <"
b10010 j
b10010 u
b10010 '"
b10010 6"
b10010 ;"
0$
#122000
1D
1K
b0 [
b0 9"
b0 @"
b100011 h
b100011 p
b100011 ~
b0 g
b0 n
b0 s
b0 ="
b0 r
b100 9
b100 <
b100 B
b100 o
b10 7
b10 =
b10 C
b10 z
18
b10101 >
b10010 "
b10010 A
1$
#124000
b0 )"
b0 ]
b0 8"
b0 I"
b0 j
b0 u
b0 '"
b0 6"
b0 ;"
0$
#126000
1(
b0 >
b10101 "
b10101 A
1$
#128000
b0 Q
b0 %"
b0 N"
b0 S
b0 l
b0 L"
0$
#130000
b11 S
b11 l
b11 L"
b10010 [
b10010 9"
b10010 @"
b1001 Y
b1001 F"
b1001 G"
b10 h
b10 p
b10 ~
0D
0K
b10010 g
b10010 n
b10010 s
b10010 ="
b10010 r
1I
0(
b0 9
b0 <
b0 B
b0 o
14
b0 *
b0 @
b0 J
b0 E"
1,
b1 7
b1 =
b1 C
b1 z
08
13
b10 >
b0 "
b0 A
1$
