output.vcd
$date
	Sat Apr 23 21:33:09 2022
$end
$version
	Icarus Verilog
$end
$timescale
	1ps
$end
$scope module tb_multi_cycle $end
$var wire 16 ! Instruction [15:0] $end
$var wire 5 " State [4:0] $end
$var wire 5 # OpCode [4:0] $end
$var reg 1 $ clk $end
$var reg 1 % rst $end
$var integer 32 & count [31:0] $end
$scope module uut $end
$var wire 1 $ clk $end
$var wire 1 % rst $end
$var wire 2 ' SESF [1:0] $end
$var wire 1 ( RegWr $end
$var wire 1 ) RegDst $end
$var wire 2 * R1Src [1:0] $end
$var wire 1 + PCWriteCond $end
$var wire 1 , PCWrite $end
$var wire 2 - PCSrc [1:0] $end
$var wire 4 . OpCode [3:0] $end
$var wire 1 / MemWr $end
$var wire 1 0 MemToReg $end
$var wire 1 1 MemRd $end
$var wire 1 2 JE $end
$var wire 1 3 IRd $end
$var wire 1 4 IRWr $end
$var wire 4 5 Func [3:0] $end
$var wire 1 6 BNEq $end
$var wire 2 7 ALUSrcB [1:0] $end
$var wire 1 8 ALUSrcA $end
$var wire 3 9 ALUCtrl [2:0] $end
$scope module ControlUnit $end
$var wire 1 $ clk $end
$var wire 1 % rst $end
$var wire 4 : OpCode [3:0] $end
$var wire 4 ; Func [3:0] $end
$var reg 3 < ALU [2:0] $end
$var reg 1 8 ALUSrcA $end
$var reg 2 = ALUSrcB [1:0] $end
$var reg 1 6 BNEq $end
$var reg 1 4 IRWr $end
$var reg 1 3 IRd $end
$var reg 1 2 JE $end
$var reg 1 1 MemRd $end
$var reg 1 0 MemToReg $end
$var reg 1 / MemWr $end
$var reg 5 > NextState [4:0] $end
$var reg 2 ? PCSrc [1:0] $end
$var reg 1 , PCWrite $end
$var reg 1 + PCWriteCond $end
$var reg 2 @ R1Src [1:0] $end
$var reg 1 ) RegDst $end
$var reg 1 ( RegWr $end
$var reg 2 A SESF [1:0] $end
$var reg 5 B State [4:0] $end
$upscope $end
$scope module Datapath $end
$var wire 3 C ALUCtrl [2:0] $end
$var wire 1 8 ALUSrcA $end
$var wire 2 D ALUSrcB [1:0] $end
$var wire 1 6 BNEq $end
$var wire 1 E Branch $end
$var wire 1 F ChangePC $end
$var wire 4 G Func [3:0] $end
$var wire 1 4 IRWr $end
$var wire 1 3 IRd $end
$var wire 1 2 JE $end
$var wire 1 1 MemRd $end
$var wire 1 0 MemToReg $end
$var wire 1 / MemWr $end
$var wire 4 H OpCode [3:0] $end
$var wire 2 I PCSrc [1:0] $end
$var wire 1 , PCWrite $end
$var wire 1 + PCWriteCond $end
$var wire 1 J PCWrite_in $end
$var wire 2 K R1Src [1:0] $end
$var wire 1 ) RegDst $end
$var wire 1 ( RegWr $end
$var wire 2 L SESF [1:0] $end
$var wire 1 $ clk $end
$var wire 1 % rst $end
$var wire 1 M Zero $end
$var wire 16 N ZP_8to16_out [15:0] $end
$var wire 16 O ZP_4to16_out [15:0] $end
$var wire 16 P SEx_8to16_out [15:0] $end
$var wire 16 Q SEx_12to16_out [15:0] $end
$var wire 16 R SESF_m_out [15:0] $end
$var wire 4 S RegDst_m_out [3:0] $end
$var wire 16 T ReadData3 [15:0] $end
$var wire 16 U ReadData2 [15:0] $end
$var wire 16 V ReadData1 [15:0] $end
$var wire 2 W RP_l [1:0] $end
$var wire 2 X RD_l [1:0] $end
$var wire 4 Y RC [3:0] $end
$var wire 4 Z RB [3:0] $end
$var wire 4 [ RA [3:0] $end
$var wire 4 \ R1Src_m_out [3:0] $end
$var wire 16 ] PC_out [15:0] $end
$var wire 16 ^ PCSrc_m_out [15:0] $end
$var wire 4 _ Opcode [3:0] $end
$var wire 16 ` MemToReg_m_out [15:0] $end
$var wire 16 a MDR_out [15:0] $end
$var wire 16 b LeftShift_out [15:0] $end
$var wire 16 c JE_m_out [15:0] $end
$var wire 16 d InstrMem_out [15:0] $end
$var wire 16 e IR_out [15:0] $end
$var wire 16 f DataMem_out [15:0] $end
$var wire 16 g C_out [15:0] $end
$var wire 16 h B_out [15:0] $end
$var wire 16 i A_out [15:0] $end
$var wire 16 j ALU_out [15:0] $end
$var wire 16 k ALUSrcB_m_out [15:0] $end
$var wire 16 l ALUSrcA_m_out [15:0] $end
$var wire 16 m ALUOut_out [15:0] $end
$scope module A $end
$var wire 1 n Write $end
$var wire 1 $ clk $end
$var wire 1 % rst $end
$var wire 16 o Input [15:0] $end
$var reg 16 p Output [15:0] $end
$upscope $end
$scope module ALU $end
$var wire 16 q ALU_Out [15:0] $end
$var wire 3 r ALU_Sel [2:0] $end
$var wire 1 M Zero $end
$var wire 16 s B [15:0] $end
$var wire 16 t A [15:0] $end
$var reg 16 u ALU_Result [15:0] $end
$var reg 1 M ZF $end
$upscope $end
$scope module ALUOut $end
$var wire 16 v Input [15:0] $end
$var wire 1 w Write $end
$var wire 1 $ clk $end
$var wire 1 % rst $end
$var reg 16 x Output [15:0] $end
$upscope $end
$scope module ALUSrcA_m $end
$var wire 16 y Input1 [15:0] $end
$var wire 1 8 Select $end
$var wire 16 z Input0 [15:0] $end
$var reg 16 { Output [15:0] $end
$upscope $end
$scope module ALUSrcB_m $end
$var wire 16 | Input1 [15:0] $end
$var wire 2 } Select [1:0] $end
$var wire 16 ~ Input3 [15:0] $end
$var wire 16 !" Input2 [15:0] $end
$var wire 16 "" Input0 [15:0] $end
$var reg 16 #" Output [15:0] $end
$upscope $end
$scope module B $end
$var wire 1 $" Write $end
$var wire 1 $ clk $end
$var wire 1 % rst $end
$var wire 16 %" Input [15:0] $end
$var reg 16 &" Output [15:0] $end
$upscope $end
$scope module C $end
$var wire 1 '" Write $end
$var wire 1 $ clk $end
$var wire 1 % rst $end
$var wire 16 (" Input [15:0] $end
$var reg 16 )" Output [15:0] $end
$upscope $end
$scope module DataMem $end
$var wire 16 *" Address [15:0] $end
$var wire 1 1 MemRead $end
$var wire 1 / MemWrite $end
$var wire 16 +" WriteData [15:0] $end
$var wire 1 $ clk $end
$var reg 15 ," ActualAddress [14:0] $end
$var reg 16 -" MemData [15:0] $end
$upscope $end
$scope module IR $end
$var wire 1 4 Write $end
$var wire 1 $ clk $end
$var wire 1 % rst $end
$var wire 16 ." Input [15:0] $end
$var reg 16 /" Output [15:0] $end
$upscope $end
$scope module InstrMem $end
$var wire 1 3 IRd $end
$var wire 1 $ clk $end
$var wire 16 0" pc [15:0] $end
$var wire 15 1" address [14:0] $end
$var reg 16 2" instruction [15:0] $end
$upscope $end
$scope module JE_m $end
$var wire 1 2 Select $end
$var wire 16 3" Input1 [15:0] $end
$var wire 16 4" Input0 [15:0] $end
$var reg 16 5" Output [15:0] $end
$upscope $end
$scope module MDR $end
$var wire 16 6" Input [15:0] $end
$var wire 1 7" Write $end
$var wire 1 $ clk $end
$var wire 1 % rst $end
$var reg 16 8" Output [15:0] $end
$upscope $end
$scope module MemToReg_m $end
$var wire 16 9" Input0 [15:0] $end
$var wire 16 :" Input1 [15:0] $end
$var wire 1 0 Select $end
$var reg 16 ;" Output [15:0] $end
$upscope $end
$scope module PC $end
$var wire 1 J Write $end
$var wire 1 $ clk $end
$var wire 1 % rst $end
$var wire 16 <" Input [15:0] $end
$var reg 16 =" Output [15:0] $end
$upscope $end
$scope module PCSrc_m $end
$var wire 16 >" Input0 [15:0] $end
$var wire 16 ?" Input1 [15:0] $end
$var wire 16 @" Input2 [15:0] $end
$var wire 16 A" Input3 [15:0] $end
$var wire 2 B" Select [1:0] $end
$var reg 16 C" Output [15:0] $end
$upscope $end
$scope module R1Src_m $end
$var wire 4 D" Input0 [3:0] $end
$var wire 4 E" Input1 [3:0] $end
$var wire 4 F" Input2 [3:0] $end
$var wire 4 G" Input3 [3:0] $end
$var wire 2 H" Select [1:0] $end
$var reg 4 I" Output [3:0] $end
$upscope $end
$scope module RFile $end
$var wire 4 J" ReadReg1 [3:0] $end
$var wire 4 K" ReadReg2 [3:0] $end
$var wire 1 ( RegWr $end
$var wire 16 L" WriteData [15:0] $end
$var wire 1 $ clk $end
$var wire 4 M" WriteRegister [3:0] $end
$var wire 4 N" ReadReg3 [3:0] $end
$var reg 16 O" ReadData1 [15:0] $end
$var reg 16 P" ReadData2 [15:0] $end
$var reg 16 Q" ReadData3 [15:0] $end
$var integer 32 R" i [31:0] $end
$upscope $end
$scope module RegDst_m $end
$var wire 4 S" Input0 [3:0] $end
$var wire 4 T" Input1 [3:0] $end
$var wire 1 ) Select $end
$var reg 4 U" Output [3:0] $end
$upscope $end
$scope module SESF_m $end
$var wire 16 V" Input3 [15:0] $end
$var wire 2 W" Select [1:0] $end
$var wire 16 X" Input2 [15:0] $end
$var wire 16 Y" Input1 [15:0] $end
$var wire 16 Z" Input0 [15:0] $end
$var reg 16 [" Output [15:0] $end
$upscope $end
$scope module ls1 $end
$var wire 16 \" Input [15:0] $end
$var reg 16 ]" Output [15:0] $end
$upscope $end
$scope module sex1 $end
$var wire 8 ^" unext [7:0] $end
$var reg 16 _" ext [15:0] $end
$upscope $end
$scope module sex2 $end
$var wire 12 `" unext [11:0] $end
$var reg 16 a" ext [15:0] $end
$upscope $end
$scope module zp1 $end
$var wire 8 b" unext [7:0] $end
$var reg 16 c" ext [15:0] $end
$upscope $end
$scope module zp2 $end
$var wire 4 d" unext [3:0] $end
$var reg 16 e" ext [15:0] $end
$upscope $end
$upscope $end
$upscope $end
$upscope $end
$enddefinitions $end
#0
$dumpvars
b0 e"
b0 d"
b0 c"
b0 b"
b0 a"
b0 `"
b0 _"
b0 ^"
b0 ]"
b0 \"
b0 ["
b0 Z"
b0 Y"
b0 X"
b0 W"
bx V"
b0 U"
b1100 T"
b0 S"
b10000 R"
b11 Q"
b11 P"
b11 O"
b0 N"
b0 M"
b0 L"
b0 K"
b1000 J"
b1000 I"
b0 H"
bx G"
b0 F"
b0 E"
b1000 D"
b10 C"
b10 B"
bx A"
b10 @"
b0 ?"
b0 >"
b0 ="
b10 <"
b0 ;"
b0 :"
b0 9"
b0 8"
17"
bx 6"
b0 5"
b0 4"
b0 3"
b1000000100000000 2"
b0 1"
b0 0"
b0 /"
b1000000100000000 ."
bx -"
b0 ,"
b0 +"
b0 *"
b0 )"
b11 ("
1'"
b0 &"
b11 %"
1$"
b10 #"
b0 ""
b0 !"
b0 ~
b1 }
b10 |
b0 {
b0 z
b0 y
b0 x
1w
b10 v
b10 u
b0 t
b10 s
b0 r
b10 q
b0 p
b11 o
1n
b0 m
b0 l
b10 k
b10 j
b0 i
b0 h
b0 g
bx f
b0 e
b1000000100000000 d
b0 c
b0 b
b0 a
b0 `
b0 _
b10 ^
b0 ]
b1000 \
b0 [
b0 Z
b0 Y
b0 X
b0 W
b11 V
b11 U
b11 T
b0 S
b0 R
b0 Q
b0 P
b0 O
b0 N
0M
b0 L
b0 K
1J
b10 I
b0 H
b0 G
0F
0E
b1 D
b0 C
b0 B
b0 A
b0 @
b10 ?
b10 >
b1 =
b0 <
b0 ;
b0 :
b0 9
08
b1 7
06
b0 5
14
13
02
01
00
0/
b0 .
b10 -
1,
0+
b0 *
0)
0(
b0 '
b0 &
1%
0$
b0 #
b0 "
b0 !
$end
#2000
1$
#3000
0%
#4000
b100 ^
b100 <"
b100 C"
b100 j
b100 q
b100 v
b100 @"
b100 u
b1001 \
b1001 I"
b1001 J"
b1 >
b100000000 Q
b100000000 3"
b100000000 a"
b1 S
b1 M"
b1 N"
b1 U"
b1010000100001010 d
b1010000100001010 ."
b1010000100001010 2"
b1 ,"
b10 `
b10 ;"
b10 L"
b10 l
b10 t
b10 {
b1001 D"
b1 W
b1000 .
b1000 :
b1000 H
b1000 _
b100000000 `"
b1 [
b1 F"
b1 S"
b1000 #
b1 1"
b10 m
b10 x
b10 *"
b10 9"
b10 >"
b11 g
b11 )"
b11 +"
b11 ?"
b11 h
b11 ""
b11 &"
b11 i
b11 p
b11 y
bx a
bx 8"
bx :"
b1000000100000000 !
b1000000100000000 e
b1000000100000000 /"
b10 ]
b10 z
b10 0"
b10 ="
b1 &
0$
#6000
b100000000 c
b100000000 !"
b100000000 5"
b0 \
b0 I"
b0 J"
0J
04
12
b1 *
b1 @
b1 K
b1 H"
0,
03
b110 >
b1 "
b1 B
1$
#8000
b10 ,"
b100 `
b100 ;"
b100 L"
b100 m
b100 x
b100 *"
b100 9"
b100 >"
0$
#10000
b110 ^
b110 <"
b110 C"
b110 j
b110 q
b110 v
b110 @"
b110 u
b11 k
b11 s
b11 #"
b11 l
b11 t
b11 {
b0 7
b0 =
b0 D
b0 }
18
b10101 >
b110 "
b110 B
1$
#12000
b11 ,"
b110 `
b110 ;"
b110 L"
b110 m
b110 x
b110 *"
b110 9"
b110 >"
0$
#14000
1(
b0 >
b10101 "
b10101 B
1$
#16000
b110 T
b110 ("
b110 Q"
0$
#18000
b100 ^
b100 <"
b100 C"
b100 j
b100 q
b100 v
b100 @"
b100 u
b0 c
b0 !"
b0 5"
b1001 \
b1001 I"
b1001 J"
b10 k
b10 s
b10 #"
b10 l
b10 t
b10 {
1J
02
0(
14
b0 *
b0 @
b0 K
b0 H"
1,
b1 7
b1 =
b1 D
b1 }
08
13
b1 >
b0 "
b0 B
1$
#20000
b1010 c
b1010 !"
b1010 5"
b110 ^
b110 <"
b110 C"
b1010 b
b1010 ~
b1010 ]"
b1010 R
b1010 4"
b1010 ["
b110 j
b110 q
b110 v
b110 @"
b110 u
b1010 P
b1010 Y"
b1010 \"
b1010 _"
b100001010 Q
b100001010 3"
b100001010 a"
b1010 N
b1010 Z"
b1010 c"
b10 >
b1000001000000000 d
b1000001000000000 ."
b1000001000000000 2"
b10 ,"
b100 `
b100 ;"
b100 L"
b100 l
b100 t
b100 {
b1010 .
b1010 :
b1010 H
b1010 _
b1010 ^"
b100001010 `"
b1010 b"
b1010 5
b1010 ;
b1010 G
b1010 Y
b1010 K"
b1010 #
b10 1"
b100 m
b100 x
b100 *"
b100 9"
b100 >"
b110 g
b110 )"
b110 +"
b110 ?"
b1010000100001010 !
b1010000100001010 e
b1010000100001010 /"
b100 ]
b100 z
b100 0"
b100 ="
b10 &
0$
#22000
b110 V
b110 o
b110 O"
b1 \
b1 I"
b1 J"
0J
04
b10 *
b10 @
b10 K
b10 H"
0,
03
b1010 >
b10 "
b10 B
1$
#24000
b11 ,"
b110 `
b110 ;"
b110 L"
b110 i
b110 p
b110 y
b110 m
b110 x
b110 *"
b110 9"
b110 >"
0$
#26000
b10000 ^
b10000 <"
b10000 C"
b10000 j
b10000 q
b10000 v
b10000 @"
b10000 u
b1010 k
b1010 s
b1010 #"
b110 l
b110 t
b110 {
b10 7
b10 =
b10 D
b10 }
18
b10101 >
b1010 "
b1010 B
1$
#28000
b1000 ,"
b10000 `
b10000 ;"
b10000 L"
b10000 m
b10000 x
b10000 *"
b10000 9"
b10000 >"
0$
#30000
1(
b0 >
b10101 "
b10101 B
1$
#32000
b10000 T
b10000 ("
b10000 Q"
b10000 V
b10000 o
b10000 O"
0$
#34000
b110 ^
b110 <"
b110 C"
b11 V
b11 o
b11 O"
b110 j
b110 q
b110 v
b110 @"
b110 u
b1001 \
b1001 I"
b1001 J"
b10 k
b10 s
b10 #"
b100 l
b100 t
b100 {
1J
0(
14
b0 *
b0 @
b0 K
b0 H"
1,
b1 7
b1 =
b1 D
b1 }
08
13
b10 >
b0 "
b0 B
1$
#36000
b0 c
b0 !"
b0 5"
b1000 ^
b1000 <"
b1000 C"
b11 T
b11 ("
b11 Q"
b0 b
b0 ~
b0 ]"
b0 R
b0 4"
b0 ["
b1000 j
b1000 q
b1000 v
b1000 @"
b1000 u
b1010 \
b1010 I"
b1010 J"
b10 S
b10 M"
b10 N"
b10 U"
b0 P
b0 Y"
b0 \"
b0 _"
b1000000000 Q
b1000000000 3"
b1000000000 a"
b0 N
b0 Z"
b0 c"
b1 >
b1010001000000100 d
b1010001000000100 ."
b1010001000000100 2"
b11 ,"
b110 `
b110 ;"
b110 L"
b110 l
b110 t
b110 {
b1010 D"
b10 W
b1000 .
b1000 :
b1000 H
b1000 _
b10 [
b10 F"
b10 S"
b0 ^"
b1000000000 `"
b0 b"
b0 5
b0 ;
b0 G
b0 Y
b0 K"
b1000 #
b11 1"
b110 m
b110 x
b110 *"
b110 9"
b110 >"
b10000 g
b10000 )"
b10000 +"
b10000 ?"
b11 i
b11 p
b11 y
b1000001000000000 !
b1000001000000000 e
b1000001000000000 /"
b110 ]
b110 z
b110 0"
b110 ="
b11 &
0$
#38000
b1000000000 c
b1000000000 !"
b1000000000 5"
b0 \
b0 I"
b0 J"
0J
04
12
b1 *
b1 @
b1 K
b1 H"
0,
03
b110 >
b1 "
b1 B
1$
#40000
b100 ,"
b1000 `
b1000 ;"
b1000 L"
b11 g
b11 )"
b11 +"
b11 ?"
b1000 m
b1000 x
b1000 *"
b1000 9"
b1000 >"
0$
#42000
b110 ^
b110 <"
b110 C"
b110 j
b110 q
b110 v
b110 @"
b110 u
b11 k
b11 s
b11 #"
b11 l
b11 t
b11 {
b0 7
b0 =
b0 D
b0 }
18
b10101 >
b110 "
b110 B
1$
#44000
b11 ,"
b110 `
b110 ;"
b110 L"
b110 m
b110 x
b110 *"
b110 9"
b110 >"
0$
#46000
1(
b0 >
b10101 "
b10101 B
1$
#48000
b110 T
b110 ("
b110 Q"
0$
#50000
b1000 ^
b1000 <"
b1000 C"
b1000 j
b1000 q
b1000 v
b1000 @"
b1000 u
b0 c
b0 !"
b0 5"
b1010 \
b1010 I"
b1010 J"
b10 k
b10 s
b10 #"
b110 l
b110 t
b110 {
1J
02
0(
14
b0 *
b0 @
b0 K
b0 H"
1,
b1 7
b1 =
b1 D
b1 }
08
13
b1 >
b0 "
b0 B
1$
#52000
b100 c
b100 !"
b100 5"
b1010 ^
b1010 <"
b1010 C"
b100 b
b100 ~
b100 ]"
b100 R
b100 4"
b100 ["
b1010 j
b1010 q
b1010 v
b1010 @"
b1010 u
b100 P
b100 Y"
b100 \"
b100 _"
b1000000100 Q
b1000000100 3"
b1000000100 a"
b100 N
b100 Z"
b100 c"
b10 >
b1100001100010010 d
b1100001100010010 ."
b1100001100010010 2"
b100 ,"
b1000 `
b1000 ;"
b1000 L"
b1000 l
b1000 t
b1000 {
b1010 .
b1010 :
b1010 H
b1010 _
b100 ^"
b1000000100 `"
b100 b"
b100 5
b100 ;
b100 G
b100 Y
b100 K"
b1010 #
b100 1"
b1000 m
b1000 x
b1000 *"
b1000 9"
b1000 >"
b110 g
b110 )"
b110 +"
b110 ?"
b1010001000000100 !
b1010001000000100 e
b1010001000000100 /"
b1000 ]
b1000 z
b1000 0"
b1000 ="
b100 &
0$
#54000
b110 V
b110 o
b110 O"
b10 \
b10 I"
b10 J"
0J
04
b10 *
b10 @
b10 K
b10 H"
0,
03
b1010 >
b10 "
b10 B
1$
#56000
b101 ,"
b1010 `
b1010 ;"
b1010 L"
b110 i
b110 p
b110 y
b1010 m
b1010 x
b1010 *"
b1010 9"
b1010 >"
0$
#58000
b100 k
b100 s
b100 #"
b110 l
b110 t
b110 {
b10 7
b10 =
b10 D
b10 }
18
b10101 >
b1010 "
b1010 B
1$
#60000
0$
#62000
1(
b0 >
b10101 "
b10101 B
1$
#64000
b1010 T
b1010 ("
b1010 Q"
b1010 V
b1010 o
b1010 O"
0$
#66000
b11 V
b11 o
b11 O"
b1010 \
b1010 I"
b1010 J"
b10 k
b10 s
b10 #"
b1000 l
b1000 t
b1000 {
1J
0(
14
b0 *
b0 @
b0 K
b0 H"
1,
b1 7
b1 =
b1 D
b1 }
08
13
b10 >
b0 "
b0 B
1$
#68000
b10010 c
b10010 !"
b10010 5"
b1100 ^
b1100 <"
b1100 C"
b11 T
b11 ("
b11 Q"
b10010 b
b10010 ~
b10010 ]"
b10010 R
b10010 4"
b10010 ["
b1100 j
b1100 q
b1100 v
b1100 @"
b1100 u
b1011 \
b1011 I"
b1011 J"
b11 S
b11 M"
b11 N"
b11 U"
b1 O
b1 X"
b1 e"
b10010 P
b10010 Y"
b10010 \"
b10010 _"
b1100010010 Q
b1100010010 3"
b1100010010 a"
b10010 N
b10010 Z"
b10010 c"
b1010 U
b1010 %"
b1010 P"
b1 >
b1110001100000100 d
b1110001100000100 ."
b1110001100000100 2"
b1010 l
b1010 t
b1010 {
b1011 D"
b11 W
b1100 .
b1100 :
b1100 H
b1100 _
b11 [
b11 F"
b11 S"
b1 Z
b1 E"
b1 d"
b10010 ^"
b1100010010 `"
b10010 b"
b10 5
b10 ;
b10 G
b10 Y
b10 K"
b1100 #
b101 1"
b1010 g
b1010 )"
b1010 +"
b1010 ?"
b11 i
b11 p
b11 y
b1100001100010010 !
b1100001100010010 e
b1100001100010010 /"
b1010 ]
b1010 z
b1010 0"
b1010 ="
b101 &
0$
#70000
b10000 V
b10000 o
b10000 O"
b1100010010 c
b1100010010 !"
b1100010010 5"
b1 \
b1 I"
b1 J"
0J
04
12
b1 *
b1 @
b1 K
b1 H"
0,
03
b111 >
b1 "
b1 B
1$
#72000
b110 ,"
b1100 `
b1100 ;"
b1100 L"
b10000 i
b10000 p
b10000 y
b1010 h
b1010 ""
b1010 &"
b11 g
b11 )"
b11 +"
b11 ?"
b1100 m
b1100 x
b1100 *"
b1100 9"
b1100 >"
0$
#74000
b110 ^
b110 <"
b110 C"
b1010 k
b1010 s
b1010 #"
b10000 l
b10000 t
b10000 {
b110 j
b110 q
b110 v
b110 @"
b110 u
b1 9
b1 <
b1 C
b1 r
b0 7
b0 =
b0 D
b0 }
18
b10101 >
b111 "
b111 B
1$
#76000
b11 ,"
b110 `
b110 ;"
b110 L"
b110 m
b110 x
b110 *"
b110 9"
b110 >"
0$
#78000
1(
b0 >
b10101 "
b10101 B
1$
#80000
b110 T
b110 ("
b110 Q"
0$
#82000
b11 V
b11 o
b11 O"
b1100 ^
b1100 <"
b1100 C"
b10010 c
b10010 !"
b10010 5"
b1011 \
b1011 I"
b1011 J"
b10 k
b10 s
b10 #"
b1010 l
b1010 t
b1010 {
b1100 j
b1100 q
b1100 v
b1100 @"
b1100 u
1J
02
0(
b0 9
b0 <
b0 C
b0 r
14
b0 *
b0 @
b0 K
b0 H"
1,
b1 7
b1 =
b1 D
b1 }
08
13
b1 >
b0 "
b0 B
1$
#84000
b100 c
b100 !"
b100 5"
b1110 ^
b1110 <"
b1110 C"
b100 b
b100 ~
b100 ]"
b100 R
b100 4"
b100 ["
b1110 j
b1110 q
b1110 v
b1110 @"
b1110 u
b0 O
b0 X"
b0 e"
b100 P
b100 Y"
b100 \"
b100 _"
b1100000100 Q
b1100000100 3"
b1100000100 a"
b100 N
b100 Z"
b100 c"
b11 U
b11 %"
b11 P"
b10 >
b1101110001 d
b1101110001 ."
b1101110001 2"
b110 ,"
b1100 `
b1100 ;"
b1100 L"
b1100 l
b1100 t
b1100 {
b1110 .
b1110 :
b1110 H
b1110 _
b0 Z
b0 E"
b0 d"
b100 ^"
b1100000100 `"
b100 b"
b100 5
b100 ;
b100 G
b100 Y
b100 K"
b1110 #
b110 1"
b1100 m
b1100 x
b1100 *"
b1100 9"
b1100 >"
b110 g
b110 )"
b110 +"
b110 ?"
b11 i
b11 p
b11 y
b1110001100000100 !
b1110001100000100 e
b1110001100000100 /"
b1100 ]
b1100 z
b1100 0"
b1100 ="
b110 &
0$
#86000
b110 V
b110 o
b110 O"
b11 \
b11 I"
b11 J"
0J
04
b10 *
b10 @
b10 K
b10 H"
0,
03
b1100 >
b10 "
b10 B
1$
#88000
b111 ,"
b1110 `
b1110 ;"
b1110 L"
b110 i
b110 p
b110 y
b11 h
b11 ""
b11 &"
b1110 m
b1110 x
b1110 *"
b1110 9"
b1110 >"
0$
#90000
b10 ^
b10 <"
b10 C"
b100 k
b100 s
b100 #"
b110 l
b110 t
b110 {
b10 j
b10 q
b10 v
b10 @"
b10 u
b1 9
b1 <
b1 C
b1 r
b10 7
b10 =
b10 D
b10 }
18
b10101 >
b1100 "
b1100 B
1$
#92000
b1 ,"
b10 `
b10 ;"
b10 L"
b10 m
b10 x
b10 *"
b10 9"
b10 >"
0$
#94000
1(
b0 >
b10101 "
b10101 B
1$
#96000
b10 T
b10 ("
b10 Q"
b10 V
b10 o
b10 O"
0$
#98000
b11 V
b11 o
b11 O"
b1110 ^
b1110 <"
b1110 C"
b1011 \
b1011 I"
b1011 J"
b10 k
b10 s
b10 #"
b1100 l
b1100 t
b1100 {
b1110 j
b1110 q
b1110 v
b1110 @"
b1110 u
1J
0(
b0 9
b0 <
b0 C
b0 r
14
b0 *
b0 @
b0 K
b0 H"
1,
b1 7
b1 =
b1 D
b1 }
08
13
b10 >
b0 "
b0 B
1$
#100000
b1110001 c
b1110001 !"
b1110001 5"
b10000 ^
b10000 <"
b10000 C"
b1110000 b
b1110000 ~
b1110000 ]"
b1110001 R
b1110001 4"
b1110001 ["
b10000 j
b10000 q
b10000 v
b10000 @"
b10000 u
b111 O
b111 X"
b111 e"
b1110001 P
b1110001 Y"
b1110001 \"
b1110001 _"
b1101110001 Q
b1101110001 3"
b1101110001 a"
b1110001 N
b1110001 Z"
b1110001 c"
b10000 U
b10000 %"
b10000 P"
b100100011 d
b100100011 ."
b100100011 2"
b111 ,"
b1110 `
b1110 ;"
b1110 L"
b1110 l
b1110 t
b1110 {
b0 .
b0 :
b0 H
b0 _
b111 Z
b111 E"
b111 d"
b1110001 ^"
b1101110001 `"
b1110001 b"
b1 5
b1 ;
b1 G
b1 Y
b1 K"
b0 #
b111 1"
b1110 m
b1110 x
b1110 *"
b1110 9"
b1110 >"
b10 g
b10 )"
b10 +"
b10 ?"
b11 i
b11 p
b11 y
b1101110001 !
b1101110001 e
b1101110001 /"
b1110 ]
b1110 z
b1110 0"
b1110 ="
b111 &
0$
#102000
b10 V
b10 o
b10 O"
b11 \
b11 I"
b11 J"
0J
04
b10 *
b10 @
b10 K
b10 H"
0,
03
b10000 >
b10 "
b10 B
1$
#104000
b1000 ,"
b10000 `
b10000 ;"
b10000 L"
b10 i
b10 p
b10 y
b10000 h
b10000 ""
b10000 &"
b10000 m
b10000 x
b10000 *"
b10000 9"
b10000 >"
0$
#106000
b111 c
b111 !"
b111 5"
0E
0M
b100000000 ^
b100000000 <"
b100000000 C"
b111 R
b111 4"
b111 ["
b111 k
b111 s
b111 #"
b10 l
b10 t
b10 {
b100000000 j
b100000000 q
b100000000 v
b100000000 @"
b100000000 u
b10 9
b10 <
b10 C
b10 r
b10 '
b10 A
b10 L
b10 W"
b10 7
b10 =
b10 D
b10 }
18
b10101 >
b10000 "
b10000 B
1$
#108000
b10000000 ,"
b100000000 `
b100000000 ;"
b100000000 L"
b100000000 m
b100000000 x
b100000000 *"
b100000000 9"
b100000000 >"
0$
#110000
1(
b0 >
b10101 "
b10101 B
1$
#112000
b100000000 T
b100000000 ("
b100000000 Q"
b100000000 V
b100000000 o
b100000000 O"
0$
#114000
b1110001 c
b1110001 !"
b1110001 5"
b11 V
b11 o
b11 O"
b10000 ^
b10000 <"
b10000 C"
b1110001 R
b1110001 4"
b1110001 ["
b1011 \
b1011 I"
b1011 J"
b10 k
b10 s
b10 #"
b1110 l
b1110 t
b1110 {
b10000 j
b10000 q
b10000 v
b10000 @"
b10000 u
1J
0(
b0 9
b0 <
b0 C
b0 r
b0 '
b0 A
b0 L
b0 W"
14
b0 *
b0 @
b0 K
b0 H"
1,
b1 7
b1 =
b1 D
b1 }
08
13
b10 >
b0 "
b0 B
1$
#116000
b100011 c
b100011 !"
b100011 5"
b10010 ^
b10010 <"
b10010 C"
b10000 T
b10000 ("
b10000 Q"
b100010 b
b100010 ~
b100010 ]"
b100011 R
b100011 4"
b100011 ["
b10010 j
b10010 q
b10010 v
b10010 @"
b10010 u
b1001 \
b1001 I"
b1001 J"
b1 S
b1 M"
b1 N"
b1 U"
b10 O
b10 X"
b10 e"
b100011 P
b100011 Y"
b100011 \"
b100011 _"
b100100011 Q
b100100011 3"
b100100011 a"
b100011 N
b100011 Z"
b100011 c"
b100000000 U
b100000000 %"
b100000000 P"
b1011010000110010 d
b1011010000110010 ."
b1011010000110010 2"
b1000 ,"
b10000 `
b10000 ;"
b10000 L"
b10000 l
b10000 t
b10000 {
b1001 D"
b1 W
b1 [
b1 F"
b1 S"
b10 Z
b10 E"
b10 d"
b100011 ^"
b100100011 `"
b100011 b"
b11 5
b11 ;
b11 G
b11 Y
b11 K"
b1000 1"
b10000 m
b10000 x
b10000 *"
b10000 9"
b10000 >"
b100000000 g
b100000000 )"
b100000000 +"
b100000000 ?"
b11 i
b11 p
b11 y
b100100011 !
b100100011 e
b100100011 /"
b10000 ]
b10000 z
b10000 0"
b10000 ="
b1000 &
0$
#118000
b10000 V
b10000 o
b10000 O"
b1 \
b1 I"
b1 J"
0J
04
b10 *
b10 @
b10 K
b10 H"
0,
03
b10010 >
b10 "
b10 B
1$
#120000
b1001 ,"
b10010 `
b10010 ;"
b10010 L"
b10000 i
b10000 p
b10000 y
b100000000 h
b100000000 ""
b100000000 &"
b10000 g
b10000 )"
b10000 +"
b10000 ?"
b10010 m
b10010 x
b10010 *"
b10010 9"
b10010 >"
0$
#122000
b10 c
b10 !"
b10 5"
0E
0M
b100 ^
b100 <"
b100 C"
b10 R
b10 4"
b10 ["
b10 k
b10 s
b10 #"
b100 j
b100 q
b100 v
b100 @"
b100 u
b100 9
b100 <
b100 C
b100 r
b10 '
b10 A
b10 L
b10 W"
b10 7
b10 =
b10 D
b10 }
18
b10101 >
b10010 "
b10010 B
1$
#124000
b10 ,"
b100 `
b100 ;"
b100 L"
b100 m
b100 x
b100 *"
b100 9"
b100 >"
0$
#126000
1(
b0 >
b10101 "
b10101 B
1$
#128000
b100 T
b100 ("
b100 Q"
b100 V
b100 o
b100 O"
0$
