results.txt
WARNING: datapath.v:268: $readmemh(instruction.dat): Not enough words in the file for the requested range [0:32767].
VCD info: dumpfile output.vcd opened for output.

[T = 5ns]	# 1 Instruction: 8110 	(R type)
Stage: IF
State:  0	PC: 0002H	IR: 8110H
Control Signals	 clk: 0, PCWrite: 1, PCWriteCond: 0, BNEq: 0, MemRd: 0, MemWr: 0, IRd: 1, IRWr: 1, RegWr: 0, RegDst: 0, MemToReg: 0, SESF: 00, JE: 0, ALUSrcA: 0, R1Src: 00, ALUSrcB: 01, PCSrc: 10, ALUCtrl: 000, OpCode: 1000, Func: 0000
Stage: ID
State:  1	A (R1): 0004H	B (R0): 0004H	C (R1): 0004H
Control Signals	 clk: 0, PCWrite: 0, PCWriteCond: 0, BNEq: 0, MemRd: 0, MemWr: 0, IRd: 0, IRWr: 0, RegWr: 0, RegDst: 0, MemToReg: 0, SESF: 00, JE: 1, ALUSrcA: 0, R1Src: 01, ALUSrcB: 01, PCSrc: 10, ALUCtrl: 000, OpCode: 1000, Func: 0000
Stage: EX
State:  6	ALUOut: 0008H	ALU Operation Done: 0004H Add 0004H
Control Signals	 clk: 0, PCWrite: 0, PCWriteCond: 0, BNEq: 0, MemRd: 0, MemWr: 0, IRd: 0, IRWr: 0, RegWr: 0, RegDst: 0, MemToReg: 0, SESF: 00, JE: 1, ALUSrcA: 1, R1Src: 01, ALUSrcB: 00, PCSrc: 10, ALUCtrl: 000, OpCode: 1000, Func: 0000
Stage: MEM
State: 21	RD: R1	Reg[RD]: 0008H
Control Signals	 clk: 0, PCWrite: 0, PCWriteCond: 0, BNEq: 0, MemRd: 0, MemWr: 0, IRd: 0, IRWr: 0, RegWr: 1, RegDst: 0, MemToReg: 0, SESF: 00, JE: 1, ALUSrcA: 1, R1Src: 01, ALUSrcB: 00, PCSrc: 10, ALUCtrl: 000, OpCode: 1000, Func: 0000

[T = 21ns]	# 2 Instruction: a13a 	(I type)
Stage: IF
State:  0	PC: 0004H	IR: a13aH
Control Signals	 clk: 0, PCWrite: 1, PCWriteCond: 0, BNEq: 0, MemRd: 0, MemWr: 0, IRd: 1, IRWr: 1, RegWr: 0, RegDst: 0, MemToReg: 0, SESF: 00, JE: 0, ALUSrcA: 0, R1Src: 00, ALUSrcB: 01, PCSrc: 10, ALUCtrl: 000, OpCode: 1010, Func: 1010
Stage: ID
State:  2	RD (R1): 0008H 	 Immediate Data: 3aH
Control Signals	 clk: 0, PCWrite: 0, PCWriteCond: 0, BNEq: 0, MemRd: 0, MemWr: 0, IRd: 0, IRWr: 0, RegWr: 0, RegDst: 0, MemToReg: 0, SESF: 00, JE: 0, ALUSrcA: 0, R1Src: 10, ALUSrcB: 01, PCSrc: 10, ALUCtrl: 000, OpCode: 1010, Func: 1010
Stage: EX
State: 10	ALUOut: 0042H	ALU Operation Done: 0008H Add 003aH
Control Signals	 clk: 0, PCWrite: 0, PCWriteCond: 0, BNEq: 0, MemRd: 0, MemWr: 0, IRd: 0, IRWr: 0, RegWr: 0, RegDst: 0, MemToReg: 0, SESF: 00, JE: 0, ALUSrcA: 1, R1Src: 10, ALUSrcB: 10, PCSrc: 10, ALUCtrl: 000, OpCode: 1010, Func: 1010
Stage: MEM
State: 21	RD: R1	Reg[RD]: 0042H
Control Signals	 clk: 0, PCWrite: 0, PCWriteCond: 0, BNEq: 0, MemRd: 0, MemWr: 0, IRd: 0, IRWr: 0, RegWr: 1, RegDst: 0, MemToReg: 0, SESF: 00, JE: 0, ALUSrcA: 1, R1Src: 10, ALUSrcB: 10, PCSrc: 10, ALUCtrl: 000, OpCode: 1010, Func: 1010

[T = 37ns]	# 3 Instruction: 8220 	(R type)
Stage: IF
State:  0	PC: 0006H	IR: 8220H
Control Signals	 clk: 0, PCWrite: 1, PCWriteCond: 0, BNEq: 0, MemRd: 0, MemWr: 0, IRd: 1, IRWr: 1, RegWr: 0, RegDst: 0, MemToReg: 0, SESF: 00, JE: 0, ALUSrcA: 0, R1Src: 00, ALUSrcB: 01, PCSrc: 10, ALUCtrl: 000, OpCode: 1000, Func: 0000
Stage: ID
State:  1	A (R2): 0004H	B (R0): 0004H	C (R2): 0004H
Control Signals	 clk: 0, PCWrite: 0, PCWriteCond: 0, BNEq: 0, MemRd: 0, MemWr: 0, IRd: 0, IRWr: 0, RegWr: 0, RegDst: 0, MemToReg: 0, SESF: 00, JE: 1, ALUSrcA: 0, R1Src: 01, ALUSrcB: 01, PCSrc: 10, ALUCtrl: 000, OpCode: 1000, Func: 0000
Stage: EX
State:  6	ALUOut: 0008H	ALU Operation Done: 0004H Add 0004H
Control Signals	 clk: 0, PCWrite: 0, PCWriteCond: 0, BNEq: 0, MemRd: 0, MemWr: 0, IRd: 0, IRWr: 0, RegWr: 0, RegDst: 0, MemToReg: 0, SESF: 00, JE: 1, ALUSrcA: 1, R1Src: 01, ALUSrcB: 00, PCSrc: 10, ALUCtrl: 000, OpCode: 1000, Func: 0000
Stage: MEM
State: 21	RD: R2	Reg[RD]: 0008H
Control Signals	 clk: 0, PCWrite: 0, PCWriteCond: 0, BNEq: 0, MemRd: 0, MemWr: 0, IRd: 0, IRWr: 0, RegWr: 1, RegDst: 0, MemToReg: 0, SESF: 00, JE: 1, ALUSrcA: 1, R1Src: 01, ALUSrcB: 00, PCSrc: 10, ALUCtrl: 000, OpCode: 1000, Func: 0000

[T = 53ns]	# 4 Instruction: a214 	(I type)
Stage: IF
State:  0	PC: 0008H	IR: a214H
Control Signals	 clk: 0, PCWrite: 1, PCWriteCond: 0, BNEq: 0, MemRd: 0, MemWr: 0, IRd: 1, IRWr: 1, RegWr: 0, RegDst: 0, MemToReg: 0, SESF: 00, JE: 0, ALUSrcA: 0, R1Src: 00, ALUSrcB: 01, PCSrc: 10, ALUCtrl: 000, OpCode: 1010, Func: 0100
Stage: ID
State:  2	RD (R2): 0008H 	 Immediate Data: 14H
Control Signals	 clk: 0, PCWrite: 0, PCWriteCond: 0, BNEq: 0, MemRd: 0, MemWr: 0, IRd: 0, IRWr: 0, RegWr: 0, RegDst: 0, MemToReg: 0, SESF: 00, JE: 0, ALUSrcA: 0, R1Src: 10, ALUSrcB: 01, PCSrc: 10, ALUCtrl: 000, OpCode: 1010, Func: 0100
Stage: EX
State: 10	ALUOut: 001cH	ALU Operation Done: 0008H Add 0014H
Control Signals	 clk: 0, PCWrite: 0, PCWriteCond: 0, BNEq: 0, MemRd: 0, MemWr: 0, IRd: 0, IRWr: 0, RegWr: 0, RegDst: 0, MemToReg: 0, SESF: 00, JE: 0, ALUSrcA: 1, R1Src: 10, ALUSrcB: 10, PCSrc: 10, ALUCtrl: 000, OpCode: 1010, Func: 0100
Stage: MEM
State: 21	RD: R2	Reg[RD]: 001cH
Control Signals	 clk: 0, PCWrite: 0, PCWriteCond: 0, BNEq: 0, MemRd: 0, MemWr: 0, IRd: 0, IRWr: 0, RegWr: 1, RegDst: 0, MemToReg: 0, SESF: 00, JE: 0, ALUSrcA: 1, R1Src: 10, ALUSrcB: 10, PCSrc: 10, ALUCtrl: 000, OpCode: 1010, Func: 0100

[T = 69ns]	# 5 Instruction: c314 	(R type)
Stage: IF
State:  0	PC: 000aH	IR: c314H
Control Signals	 clk: 0, PCWrite: 1, PCWriteCond: 0, BNEq: 0, MemRd: 0, MemWr: 0, IRd: 1, IRWr: 1, RegWr: 0, RegDst: 0, MemToReg: 0, SESF: 00, JE: 0, ALUSrcA: 0, R1Src: 00, ALUSrcB: 01, PCSrc: 10, ALUCtrl: 000, OpCode: 1100, Func: 0100
Stage: ID
State:  1	A (R1): 0042H	B (R4): 0004H	C (R3): 0004H
Control Signals	 clk: 0, PCWrite: 0, PCWriteCond: 0, BNEq: 0, MemRd: 0, MemWr: 0, IRd: 0, IRWr: 0, RegWr: 0, RegDst: 0, MemToReg: 0, SESF: 00, JE: 1, ALUSrcA: 0, R1Src: 01, ALUSrcB: 01, PCSrc: 10, ALUCtrl: 000, OpCode: 1100, Func: 0100
Stage: EX
State:  7	ALUOut: 003eH	ALU Operation Done: 0042H Subtract 0004H
Control Signals	 clk: 0, PCWrite: 0, PCWriteCond: 0, BNEq: 0, MemRd: 0, MemWr: 0, IRd: 0, IRWr: 0, RegWr: 0, RegDst: 0, MemToReg: 0, SESF: 00, JE: 1, ALUSrcA: 1, R1Src: 01, ALUSrcB: 00, PCSrc: 10, ALUCtrl: 001, OpCode: 1100, Func: 0100
Stage: MEM
State: 21	RD: R3	Reg[RD]: 003eH
Control Signals	 clk: 0, PCWrite: 0, PCWriteCond: 0, BNEq: 0, MemRd: 0, MemWr: 0, IRd: 0, IRWr: 0, RegWr: 1, RegDst: 0, MemToReg: 0, SESF: 00, JE: 1, ALUSrcA: 1, R1Src: 01, ALUSrcB: 00, PCSrc: 10, ALUCtrl: 001, OpCode: 1100, Func: 0100

[T = 85ns]	# 6 Instruction: e324 	(I type)
Stage: IF
State:  0	PC: 000cH	IR: e324H
Control Signals	 clk: 0, PCWrite: 1, PCWriteCond: 0, BNEq: 0, MemRd: 0, MemWr: 0, IRd: 1, IRWr: 1, RegWr: 0, RegDst: 0, MemToReg: 0, SESF: 00, JE: 0, ALUSrcA: 0, R1Src: 00, ALUSrcB: 01, PCSrc: 10, ALUCtrl: 000, OpCode: 1110, Func: 0100
Stage: ID
State:  2	RD (R3): 003eH 	 Immediate Data: 24H
Control Signals	 clk: 0, PCWrite: 0, PCWriteCond: 0, BNEq: 0, MemRd: 0, MemWr: 0, IRd: 0, IRWr: 0, RegWr: 0, RegDst: 0, MemToReg: 0, SESF: 00, JE: 0, ALUSrcA: 0, R1Src: 10, ALUSrcB: 01, PCSrc: 10, ALUCtrl: 000, OpCode: 1110, Func: 0100
Stage: EX
State: 12	ALUOut: 001aH	ALU Operation Done: 003eH Subtract 0024H
Control Signals	 clk: 0, PCWrite: 0, PCWriteCond: 0, BNEq: 0, MemRd: 0, MemWr: 0, IRd: 0, IRWr: 0, RegWr: 0, RegDst: 0, MemToReg: 0, SESF: 00, JE: 0, ALUSrcA: 1, R1Src: 10, ALUSrcB: 10, PCSrc: 10, ALUCtrl: 001, OpCode: 1110, Func: 0100
Stage: MEM
State: 21	RD: R3	Reg[RD]: 001aH
Control Signals	 clk: 0, PCWrite: 0, PCWriteCond: 0, BNEq: 0, MemRd: 0, MemWr: 0, IRd: 0, IRWr: 0, RegWr: 1, RegDst: 0, MemToReg: 0, SESF: 00, JE: 0, ALUSrcA: 1, R1Src: 10, ALUSrcB: 10, PCSrc: 10, ALUCtrl: 001, OpCode: 1110, Func: 0100

[T = 101ns]	# 7 Instruction: 0371 	(Shift)
Stage: IF
State:  0	PC: 000eH	IR: 0371H
Control Signals	 clk: 0, PCWrite: 1, PCWriteCond: 0, BNEq: 0, MemRd: 0, MemWr: 0, IRd: 1, IRWr: 1, RegWr: 0, RegDst: 0, MemToReg: 0, SESF: 00, JE: 0, ALUSrcA: 0, R1Src: 00, ALUSrcB: 01, PCSrc: 10, ALUCtrl: 000, OpCode: 0000, Func: 0001
Stage: ID
State:  2	RD (R3): 001aH 	Immediate Data: 7H 	Func Field:0001
Control Signals	 clk: 0, PCWrite: 0, PCWriteCond: 0, BNEq: 0, MemRd: 0, MemWr: 0, IRd: 0, IRWr: 0, RegWr: 0, RegDst: 0, MemToReg: 0, SESF: 00, JE: 0, ALUSrcA: 0, R1Src: 10, ALUSrcB: 01, PCSrc: 10, ALUCtrl: 000, OpCode: 0000, Func: 0001
Stage: EX
State: 16	ALUOut: 0d00H	ALU Operation Done: 001aH SLL 0007H
Control Signals	 clk: 0, PCWrite: 0, PCWriteCond: 0, BNEq: 0, MemRd: 0, MemWr: 0, IRd: 0, IRWr: 0, RegWr: 0, RegDst: 0, MemToReg: 0, SESF: 10, JE: 0, ALUSrcA: 1, R1Src: 10, ALUSrcB: 10, PCSrc: 10, ALUCtrl: 010, OpCode: 0000, Func: 0001
Stage: MEM
State: 21	RD: R3	Reg[RD]: 0d00H
Control Signals	 clk: 0, PCWrite: 0, PCWriteCond: 0, BNEq: 0, MemRd: 0, MemWr: 0, IRd: 0, IRWr: 0, RegWr: 1, RegDst: 0, MemToReg: 0, SESF: 10, JE: 0, ALUSrcA: 1, R1Src: 10, ALUSrcB: 10, PCSrc: 10, ALUCtrl: 010, OpCode: 0000, Func: 0001

[T = 117ns]	# 8 Instruction: 0143 	(Shift)
Stage: IF
State:  0	PC: 0010H	IR: 0143H
Control Signals	 clk: 0, PCWrite: 1, PCWriteCond: 0, BNEq: 0, MemRd: 0, MemWr: 0, IRd: 1, IRWr: 1, RegWr: 0, RegDst: 0, MemToReg: 0, SESF: 00, JE: 0, ALUSrcA: 0, R1Src: 00, ALUSrcB: 01, PCSrc: 10, ALUCtrl: 000, OpCode: 0000, Func: 0011
Stage: ID
State:  2	RD (R1): 0042H 	Immediate Data: 4H 	Func Field:0011
Control Signals	 clk: 0, PCWrite: 0, PCWriteCond: 0, BNEq: 0, MemRd: 0, MemWr: 0, IRd: 0, IRWr: 0, RegWr: 0, RegDst: 0, MemToReg: 0, SESF: 00, JE: 0, ALUSrcA: 0, R1Src: 10, ALUSrcB: 01, PCSrc: 10, ALUCtrl: 000, OpCode: 0000, Func: 0011
Stage: EX
State: 18	ALUOut: 0004H	ALU Operation Done: 0042H SAR 0004H
Control Signals	 clk: 0, PCWrite: 0, PCWriteCond: 0, BNEq: 0, MemRd: 0, MemWr: 0, IRd: 0, IRWr: 0, RegWr: 0, RegDst: 0, MemToReg: 0, SESF: 10, JE: 0, ALUSrcA: 1, R1Src: 10, ALUSrcB: 10, PCSrc: 10, ALUCtrl: 100, OpCode: 0000, Func: 0011
Stage: MEM
State: 21	RD: R1	Reg[RD]: 0004H
Control Signals	 clk: 0, PCWrite: 0, PCWriteCond: 0, BNEq: 0, MemRd: 0, MemWr: 0, IRd: 0, IRWr: 0, RegWr: 1, RegDst: 0, MemToReg: 0, SESF: 10, JE: 0, ALUSrcA: 1, R1Src: 10, ALUSrcB: 10, PCSrc: 10, ALUCtrl: 100, OpCode: 0000, Func: 0011

[T = 133ns]	# 9 Instruction: b632 	(R type)
Stage: IF
State:  0	PC: 0012H	IR: b632H
Control Signals	 clk: 0, PCWrite: 1, PCWriteCond: 0, BNEq: 0, MemRd: 0, MemWr: 0, IRd: 1, IRWr: 1, RegWr: 0, RegDst: 0, MemToReg: 0, SESF: 00, JE: 0, ALUSrcA: 0, R1Src: 00, ALUSrcB: 01, PCSrc: 10, ALUCtrl: 000, OpCode: 1011, Func: 0010
Stage: ID
State:  1	A (R3): 0d00H	B (R2): 001cH	C (R6): 0004H
Control Signals	 clk: 0, PCWrite: 0, PCWriteCond: 0, BNEq: 0, MemRd: 0, MemWr: 0, IRd: 0, IRWr: 0, RegWr: 0, RegDst: 0, MemToReg: 0, SESF: 00, JE: 1, ALUSrcA: 0, R1Src: 01, ALUSrcB: 01, PCSrc: 10, ALUCtrl: 000, OpCode: 1011, Func: 0010
Stage: EX
State:  5	ALUOut: ffffH	ALU Operation Done: 0d00H NAND 001cH
Control Signals	 clk: 0, PCWrite: 0, PCWriteCond: 0, BNEq: 0, MemRd: 0, MemWr: 0, IRd: 0, IRWr: 0, RegWr: 0, RegDst: 0, MemToReg: 0, SESF: 00, JE: 1, ALUSrcA: 1, R1Src: 01, ALUSrcB: 00, PCSrc: 10, ALUCtrl: 101, OpCode: 1011, Func: 0010
Stage: MEM
State: 21	RD: R6	Reg[RD]: ffffH
Control Signals	 clk: 0, PCWrite: 0, PCWriteCond: 0, BNEq: 0, MemRd: 0, MemWr: 0, IRd: 0, IRWr: 0, RegWr: 1, RegDst: 0, MemToReg: 0, SESF: 00, JE: 1, ALUSrcA: 1, R1Src: 01, ALUSrcB: 00, PCSrc: 10, ALUCtrl: 101, OpCode: 1011, Func: 0010

[T = 149ns]	#10 Instruction: 75ae 	(I type)
Stage: IF
State:  0	PC: 0014H	IR: 75aeH
Control Signals	 clk: 0, PCWrite: 1, PCWriteCond: 0, BNEq: 0, MemRd: 0, MemWr: 0, IRd: 1, IRWr: 1, RegWr: 0, RegDst: 0, MemToReg: 0, SESF: 00, JE: 0, ALUSrcA: 0, R1Src: 00, ALUSrcB: 01, PCSrc: 10, ALUCtrl: 000, OpCode: 0111, Func: 1110
Stage: ID
State:  2	RD (R5): 0004H 	 Immediate Data: aeH
Control Signals	 clk: 0, PCWrite: 0, PCWriteCond: 0, BNEq: 0, MemRd: 0, MemWr: 0, IRd: 0, IRWr: 0, RegWr: 0, RegDst: 0, MemToReg: 0, SESF: 00, JE: 0, ALUSrcA: 0, R1Src: 10, ALUSrcB: 01, PCSrc: 10, ALUCtrl: 000, OpCode: 0111, Func: 1110
Stage: EX
State: 15	ALUOut: fffbH	ALU Operation Done: 0004H NAND ffaeH
Control Signals	 clk: 0, PCWrite: 0, PCWriteCond: 0, BNEq: 0, MemRd: 0, MemWr: 0, IRd: 0, IRWr: 0, RegWr: 0, RegDst: 0, MemToReg: 0, SESF: 01, JE: 0, ALUSrcA: 1, R1Src: 10, ALUSrcB: 10, PCSrc: 10, ALUCtrl: 101, OpCode: 0111, Func: 1110
Stage: MEM
State: 21	RD: R5	Reg[RD]: fffbH
Control Signals	 clk: 0, PCWrite: 0, PCWriteCond: 0, BNEq: 0, MemRd: 0, MemWr: 0, IRd: 0, IRWr: 0, RegWr: 1, RegDst: 0, MemToReg: 0, SESF: 01, JE: 0, ALUSrcA: 1, R1Src: 10, ALUSrcB: 10, PCSrc: 10, ALUCtrl: 101, OpCode: 0111, Func: 1110

[T = 165ns]	#11 Instruction: 8501 	(R type)
Stage: IF
State:  0	PC: 0016H	IR: 8501H
Control Signals	 clk: 0, PCWrite: 1, PCWriteCond: 0, BNEq: 0, MemRd: 0, MemWr: 0, IRd: 1, IRWr: 1, RegWr: 0, RegDst: 0, MemToReg: 0, SESF: 00, JE: 0, ALUSrcA: 0, R1Src: 00, ALUSrcB: 01, PCSrc: 10, ALUCtrl: 000, OpCode: 1000, Func: 0001
Stage: ID
State:  1	A (R0): 0004H	B (R1): 0004H	C (R5): fffbH
Control Signals	 clk: 0, PCWrite: 0, PCWriteCond: 0, BNEq: 0, MemRd: 0, MemWr: 0, IRd: 0, IRWr: 0, RegWr: 0, RegDst: 0, MemToReg: 0, SESF: 00, JE: 1, ALUSrcA: 0, R1Src: 01, ALUSrcB: 01, PCSrc: 10, ALUCtrl: 000, OpCode: 1000, Func: 0001
Stage: EX
State:  6	ALUOut: 0008H	ALU Operation Done: 0004H Add 0004H
Control Signals	 clk: 0, PCWrite: 0, PCWriteCond: 0, BNEq: 0, MemRd: 0, MemWr: 0, IRd: 0, IRWr: 0, RegWr: 0, RegDst: 0, MemToReg: 0, SESF: 00, JE: 1, ALUSrcA: 1, R1Src: 01, ALUSrcB: 00, PCSrc: 10, ALUCtrl: 000, OpCode: 1000, Func: 0001
Stage: MEM
State: 21	RD: R5	Reg[RD]: 0008H
Control Signals	 clk: 0, PCWrite: 0, PCWriteCond: 0, BNEq: 0, MemRd: 0, MemWr: 0, IRd: 0, IRWr: 0, RegWr: 1, RegDst: 0, MemToReg: 0, SESF: 00, JE: 1, ALUSrcA: 1, R1Src: 01, ALUSrcB: 00, PCSrc: 10, ALUCtrl: 000, OpCode: 1000, Func: 0001

[T = 181ns]	#12 Instruction: e3dc 	(I type)
Stage: IF
State:  0	PC: 0018H	IR: e3dcH
Control Signals	 clk: 0, PCWrite: 1, PCWriteCond: 0, BNEq: 0, MemRd: 0, MemWr: 0, IRd: 1, IRWr: 1, RegWr: 0, RegDst: 0, MemToReg: 0, SESF: 00, JE: 0, ALUSrcA: 0, R1Src: 00, ALUSrcB: 01, PCSrc: 10, ALUCtrl: 000, OpCode: 1110, Func: 1100
Stage: ID
State:  2	RD (R3): 0d00H 	 Immediate Data: dcH
Control Signals	 clk: 0, PCWrite: 0, PCWriteCond: 0, BNEq: 0, MemRd: 0, MemWr: 0, IRd: 0, IRWr: 0, RegWr: 0, RegDst: 0, MemToReg: 0, SESF: 00, JE: 0, ALUSrcA: 0, R1Src: 10, ALUSrcB: 01, PCSrc: 10, ALUCtrl: 000, OpCode: 1110, Func: 1100
Stage: EX
State: 12	ALUOut: 0c24H	ALU Operation Done: 0d00H Subtract 00dcH
Control Signals	 clk: 0, PCWrite: 0, PCWriteCond: 0, BNEq: 0, MemRd: 0, MemWr: 0, IRd: 0, IRWr: 0, RegWr: 0, RegDst: 0, MemToReg: 0, SESF: 00, JE: 0, ALUSrcA: 1, R1Src: 10, ALUSrcB: 10, PCSrc: 10, ALUCtrl: 001, OpCode: 1110, Func: 1100
Stage: MEM
State: 21	RD: R3	Reg[RD]: 0c24H
Control Signals	 clk: 0, PCWrite: 0, PCWriteCond: 0, BNEq: 0, MemRd: 0, MemWr: 0, IRd: 0, IRWr: 0, RegWr: 1, RegDst: 0, MemToReg: 0, SESF: 00, JE: 0, ALUSrcA: 1, R1Src: 10, ALUSrcB: 10, PCSrc: 10, ALUCtrl: 001, OpCode: 1110, Func: 1100

[T = 197ns]	#13 Instruction: 4351 	(R type)
Stage: IF
State:  0	PC: 001aH	IR: 4351H
Control Signals	 clk: 0, PCWrite: 1, PCWriteCond: 0, BNEq: 0, MemRd: 0, MemWr: 0, IRd: 1, IRWr: 1, RegWr: 0, RegDst: 0, MemToReg: 0, SESF: 00, JE: 0, ALUSrcA: 0, R1Src: 00, ALUSrcB: 01, PCSrc: 10, ALUCtrl: 000, OpCode: 0100, Func: 0001
Stage: ID
State:  1	A (R5): 0008H	B (R1): 0004H	C (R3): 0c24H
Control Signals	 clk: 0, PCWrite: 0, PCWriteCond: 0, BNEq: 0, MemRd: 0, MemWr: 0, IRd: 0, IRWr: 0, RegWr: 0, RegDst: 0, MemToReg: 0, SESF: 00, JE: 1, ALUSrcA: 0, R1Src: 01, ALUSrcB: 01, PCSrc: 10, ALUCtrl: 000, OpCode: 0100, Func: 0001
Stage: EX
State:  8	Zero: 0H	PC: 001aH	Branch Taken: 0
Control Signals	 clk: 0, PCWrite: 0, PCWriteCond: 1, BNEq: 0, MemRd: 0, MemWr: 0, IRd: 0, IRWr: 0, RegWr: 0, RegDst: 0, MemToReg: 0, SESF: 00, JE: 1, ALUSrcA: 1, R1Src: 01, ALUSrcB: 00, PCSrc: 01, ALUCtrl: 001, OpCode: 0100, Func: 0001

[T = 209ns]	#14 Instruction: 8c31 	(R type)
Stage: IF
State:  0	PC: 001cH	IR: 8c31H
Control Signals	 clk: 0, PCWrite: 1, PCWriteCond: 0, BNEq: 0, MemRd: 0, MemWr: 0, IRd: 1, IRWr: 1, RegWr: 0, RegDst: 0, MemToReg: 0, SESF: 00, JE: 0, ALUSrcA: 0, R1Src: 00, ALUSrcB: 01, PCSrc: 10, ALUCtrl: 000, OpCode: 1000, Func: 0001
Stage: ID
State:  1	A (R3): 0c24H	B (R1): 0004H	C (R12): 0004H
Control Signals	 clk: 0, PCWrite: 0, PCWriteCond: 0, BNEq: 0, MemRd: 0, MemWr: 0, IRd: 0, IRWr: 0, RegWr: 0, RegDst: 0, MemToReg: 0, SESF: 00, JE: 1, ALUSrcA: 0, R1Src: 01, ALUSrcB: 01, PCSrc: 10, ALUCtrl: 000, OpCode: 1000, Func: 0001
Stage: EX
State:  6	ALUOut: 0c28H	ALU Operation Done: 0c24H Add 0004H
Control Signals	 clk: 0, PCWrite: 0, PCWriteCond: 0, BNEq: 0, MemRd: 0, MemWr: 0, IRd: 0, IRWr: 0, RegWr: 0, RegDst: 0, MemToReg: 0, SESF: 00, JE: 1, ALUSrcA: 1, R1Src: 01, ALUSrcB: 00, PCSrc: 10, ALUCtrl: 000, OpCode: 1000, Func: 0001
Stage: MEM
State: 21	RD: R12	Reg[RD]: 0c28H
Control Signals	 clk: 0, PCWrite: 0, PCWriteCond: 0, BNEq: 0, MemRd: 0, MemWr: 0, IRd: 0, IRWr: 0, RegWr: 1, RegDst: 0, MemToReg: 0, SESF: 00, JE: 1, ALUSrcA: 1, R1Src: 01, ALUSrcB: 00, PCSrc: 10, ALUCtrl: 000, OpCode: 1000, Func: 0001

[T = 225ns]	#15 Instruction: 8dc4 	(R type)
Stage: IF
State:  0	PC: 001eH	IR: 8dc4H
Control Signals	 clk: 0, PCWrite: 1, PCWriteCond: 0, BNEq: 0, MemRd: 0, MemWr: 0, IRd: 1, IRWr: 1, RegWr: 0, RegDst: 0, MemToReg: 0, SESF: 00, JE: 0, ALUSrcA: 0, R1Src: 00, ALUSrcB: 01, PCSrc: 10, ALUCtrl: 000, OpCode: 1000, Func: 0100
Stage: ID
State:  1	A (R12): 0c28H	B (R4): 0004H	C (R13): 0004H
Control Signals	 clk: 0, PCWrite: 0, PCWriteCond: 0, BNEq: 0, MemRd: 0, MemWr: 0, IRd: 0, IRWr: 0, RegWr: 0, RegDst: 0, MemToReg: 0, SESF: 00, JE: 1, ALUSrcA: 0, R1Src: 01, ALUSrcB: 01, PCSrc: 10, ALUCtrl: 000, OpCode: 1000, Func: 0100
Stage: EX
State:  6	ALUOut: 0c2cH	ALU Operation Done: 0c28H Add 0004H
Control Signals	 clk: 0, PCWrite: 0, PCWriteCond: 0, BNEq: 0, MemRd: 0, MemWr: 0, IRd: 0, IRWr: 0, RegWr: 0, RegDst: 0, MemToReg: 0, SESF: 00, JE: 1, ALUSrcA: 1, R1Src: 01, ALUSrcB: 00, PCSrc: 10, ALUCtrl: 000, OpCode: 1000, Func: 0100
Stage: MEM
State: 21	RD: R13	Reg[RD]: 0c2cH
Control Signals	 clk: 0, PCWrite: 0, PCWriteCond: 0, BNEq: 0, MemRd: 0, MemWr: 0, IRd: 0, IRWr: 0, RegWr: 1, RegDst: 0, MemToReg: 0, SESF: 00, JE: 1, ALUSrcA: 1, R1Src: 01, ALUSrcB: 00, PCSrc: 10, ALUCtrl: 000, OpCode: 1000, Func: 0100

[T = 241ns]	#16 Instruction: 4351 	(R type)
Stage: IF
State:  0	PC: 0020H	IR: 4351H
Control Signals	 clk: 0, PCWrite: 1, PCWriteCond: 0, BNEq: 0, MemRd: 0, MemWr: 0, IRd: 1, IRWr: 1, RegWr: 0, RegDst: 0, MemToReg: 0, SESF: 00, JE: 0, ALUSrcA: 0, R1Src: 00, ALUSrcB: 01, PCSrc: 10, ALUCtrl: 000, OpCode: 0100, Func: 0001
Stage: ID
State:  1	A (R5): 0008H	B (R1): 0004H	C (R3): 0c24H
Control Signals	 clk: 0, PCWrite: 0, PCWriteCond: 0, BNEq: 0, MemRd: 0, MemWr: 0, IRd: 0, IRWr: 0, RegWr: 0, RegDst: 0, MemToReg: 0, SESF: 00, JE: 1, ALUSrcA: 0, R1Src: 01, ALUSrcB: 01, PCSrc: 10, ALUCtrl: 000, OpCode: 0100, Func: 0001
Stage: EX
State:  8	Zero: 0H	PC: 0020H	Branch Taken: 0
Control Signals	 clk: 0, PCWrite: 0, PCWriteCond: 1, BNEq: 0, MemRd: 0, MemWr: 0, IRd: 0, IRWr: 0, RegWr: 0, RegDst: 0, MemToReg: 0, SESF: 00, JE: 1, ALUSrcA: 1, R1Src: 01, ALUSrcB: 00, PCSrc: 01, ALUCtrl: 001, OpCode: 0100, Func: 0001

[T = 253ns]	#17 Instruction: 3002 	(Jump)
Stage: IF
State:  0	PC: 0022H	IR: 3002H
Control Signals	 clk: 0, PCWrite: 1, PCWriteCond: 0, BNEq: 0, MemRd: 0, MemWr: 0, IRd: 1, IRWr: 1, RegWr: 0, RegDst: 0, MemToReg: 0, SESF: 00, JE: 0, ALUSrcA: 0, R1Src: 00, ALUSrcB: 01, PCSrc: 10, ALUCtrl: 000, OpCode: 0011, Func: 0010
Stage: ID
State:  1	Immediate Adress PC Relative: 0002H
Control Signals	 clk: 0, PCWrite: 0, PCWriteCond: 0, BNEq: 0, MemRd: 0, MemWr: 0, IRd: 0, IRWr: 0, RegWr: 0, RegDst: 0, MemToReg: 0, SESF: 00, JE: 1, ALUSrcA: 0, R1Src: 01, ALUSrcB: 01, PCSrc: 10, ALUCtrl: 000, OpCode: 0011, Func: 0010
Stage: EX
State: 20	PC: 0024H	ALUOut: 0024H	ALU Operation Done: 0024H Add 0002H
Control Signals	 clk: 0, PCWrite: 1, PCWriteCond: 0, BNEq: 0, MemRd: 0, MemWr: 0, IRd: 0, IRWr: 0, RegWr: 0, RegDst: 0, MemToReg: 0, SESF: 01, JE: 1, ALUSrcA: 0, R1Src: 01, ALUSrcB: 10, PCSrc: 10, ALUCtrl: 000, OpCode: 0011, Func: 0010

[T = 265ns]	#18 Instruction: 8c31 	(R type)
Stage: IF
State:  0	PC: 0026H	IR: 8c31H
Control Signals	 clk: 0, PCWrite: 1, PCWriteCond: 0, BNEq: 0, MemRd: 0, MemWr: 0, IRd: 1, IRWr: 1, RegWr: 0, RegDst: 0, MemToReg: 0, SESF: 00, JE: 0, ALUSrcA: 0, R1Src: 00, ALUSrcB: 01, PCSrc: 10, ALUCtrl: 000, OpCode: 1000, Func: 0001
Stage: ID
State:  1	A (R3): 0c24H	B (R1): 0004H	C (R12): 0c28H
Control Signals	 clk: 0, PCWrite: 0, PCWriteCond: 0, BNEq: 0, MemRd: 0, MemWr: 0, IRd: 0, IRWr: 0, RegWr: 0, RegDst: 0, MemToReg: 0, SESF: 00, JE: 1, ALUSrcA: 0, R1Src: 01, ALUSrcB: 01, PCSrc: 10, ALUCtrl: 000, OpCode: 1000, Func: 0001
Stage: EX
State:  6	ALUOut: 0c28H	ALU Operation Done: 0c24H Add 0004H
